02RETORNO01COBRANCA       32111300264300130026NOVA CRUZ COMERCIO DE MOVEIS L033SANTANDER      31101600000000006978738                                                                                                                                                                                                                                                                                  429000001
1020722161800012032111300264300130026000000000000000000689725568972555                                     50631101600068972556897255500          11081600000000132910330000001000000000065400000000000000000000000000000000000000000000000000000000000000000000000001912300000000058320000000000000 N 011116VERA LUCIA DA CRUZ RODRIGUES         00000000000000000000000000000000000019123C           429000002
1020722161800012032111300264300130026000000000000000000689495668949561                                     50631101600068949566894956100          08081600000000080830330000001000000000065400000000000000000000000000000000000000000000000000000000000000000000000001169100000000036080000000000000 N 011116LEONILDO VIEIRA DE MEDEIROS          00000000000000000000000000000000000011691C           429000003
1020722161800012032111300264300130026000000000000000000688941068894104                                     50631101600068894106889410400          28101600000000162420330000001000000000065400000000000000000000000000000000000000000000000000000000000000000000000001638300000000001410000000000000 N 011116GERSON PEDRO DO NASCIMENTO           00000000000000000000000000000000000016383C           429000004
1020722161800012032111300264300130026000000000000000000689237268923724                                     50631101600068923726892372400          05101600000000066880330000001000000000065400000000000000000000000000000000000000000000000000000000000000000000000000757600000000008880000000000000 N 011116MARIA GILVANEIDE FERNANDES           00000000000000000000000000000000000007576C           429000005
1020722161800012032111300264313002643000000000000000000990673999067390                                     50631101600099067399906739000          04111600000000057540330000001000000000065400000000000000000000000000000000000000000000000000000000000000000000000000575400000000000000000000000000 N 011116ROZIMAR VALE MERENCIO                00000000000000000000000000000000000005754C           429000006
1020722161800012032111300264313002643000000000000000000990674099067404                                     50631101600099067409906740400          04121600000000057540330000001000000000065400000000000000000000000000000000000000000000000000000000000000000000000000575400000000000000000000000000 N 011116ROZIMAR VALE MERENCIO                00000000000000000000000000000000000005754C           429000007
1020722161800012032111300264313002643                         99116065                                     406311016          9911606500          31101600000000216270330000001000000000065400000000000000000000000000000000000000000000000000000000000000000000000002162700000000000000000000000000 N 011116                                     00000000000000000000000000000000000021627C           429000008
9201033          000140520000014508646700000351                                                  000000000000000000000000000000          000000000000000000000000000000                                                                                                                                                                                                                                429000009
