02RETORNO01COBRANCA       32111300264300130026NOVA CRUZ COMERCIO DE MOVEIS L033SANTANDER      03111600000000006978738                                                                                                                                                                                                                                                                                  431000001
1020722161800012032111300264300130026000000000000000000760064076006409                                     20603111600076006407600640900          03041600000000050990330000001000000000065400000000000000000000000000000000000000000000000000000000000000000000000001103500000000059360000000000000 N 041116LENILDA DA SILVA CORDEIRO            00000000000000000000000000000000000011035C           431000002
1020722161800012032111300264300130026000000000000000000687821668782160                                     50603111600068782166878216000          06101600000000134480330000001000000000065400000000000000000000000000000000000000000000000000000000000000000000000001549200000000020440000000000000 N 041116IRACEMABARBOSADASILVA                00000000000000000000000000000000000015492C           431000003
1020722161800012032111300264300130026000000000000000000689645468964544                                     50603111600068964546896454400          14081600000000078840330000001000000000065400000000000000000000000000000000000000000000000000000000000000000000000001128100000000033970000000000000 N 041116MARIA DUELY DE OLIVEIRA              00000000000000000000000000000000000011281C           431000004
1020722161800012032111300264313002643000000000000000000990752999075296                                     50603111600099075299907529600          07091600000000095040330000001000000000065400000000000000000000000000000000000000000000000000000000000000000000000001246800000000029640000000000000 N 041116FLAVIANE DA SILVA SANTOS             00000000000000000000000000000000000012468C           431000005
9201033          000140470000014502950300000353                                                  000000000000000000000000000000          000000000000000000000000000000                                                                                                                                                                                                                                431000006
