0001808092016CREDSHOW            160436                      000001
1000000089843000023640830039721187190144800112092016000007543000002
1000000089843000023640830039721187190144800212102016000007543000003
1000000089843000023640830039721187190144800312112016000007543000004
1000000089843000023640830039721187190144800412122016000007543000005
1000000089843000023640830039721187190144800512012017000007543000006
1000000089837000023640831039725832050479100112092016000003564000007
1000000089837000023640831039725832050479100212102016000003564000008
1000000089837000023640831039725832050479100312112016000003564000009
1000000089837000023640831039725832050479100412122016000003564000010
1000000089837000023640831039725832050479100512012017000003564000011
1000000089822000023640832039720588974943900112092016000003560000012
1000000089822000023640832039720588974943900212102016000003560000013
1000000089822000023640832039720588974943900312112016000003560000014
1000000089821000023640833039720593421140400112092016000002437000015
1000000089821000023640833039720593421140400212102016000002437000016
1000000089821000023640833039720593421140400312112016000002437000017
1000000089821000023640833039720593421140400412122016000002437000018
1000000089821000023640833039720593421140400512012017000002437000019
1000000089810000023640834039720510026443800112092016000021986000020
1000000089810000023640834039720510026443800212102016000021986000021
1000000089810000023640834039720510026443800312112016000021986000022
1000000089810000023640834039720510026443800412122016000021986000023
1000000089810000023640834039720510026443800512012017000021986000024
1000000089801000023640835039720180819143900112092016000016000000025
1000000089801000023640835039720180819143900212102016000016000000026
1000000089801000023640835039720180819143900312112016000016000000027
1000000089801000023640835039720180819143900412122016000016000000028
1000000089801000023640835039720180819143900512012017000016000000029
1000000089779000023640836039729694050642000112092016000002845000030
1000000089779000023640836039729694050642000212102016000002845000031
1000000089779000023640836039729694050642000312112016000002845000032
1000000089779000023640836039729694050642000412122016000002845000033
1000000089779000023640836039729694050642000512012017000002845000034
1000000089769000023640837039720246279940000112092016000017098000035
1000000089769000023640837039720246279940000212102016000017098000036
1000000089769000023640837039720246279940000312112016000017098000037
1000000089769000023640837039720246279940000412122016000017098000038
1000000089769000023640837039720246279940000512012017000017098000039
1000000089758000023640838039720752131842000112092016000003564000040
1000000089758000023640838039720752131842000212102016000003564000041
1000000089758000023640838039720752131842000312112016000003564000042
1000000089758000023640838039720752131842000412122016000003564000043
1000000089758000023640838039720752131842000512012017000003564000044
1000000089754000023640839039721023263645100112092016000007339000045
1000000089754000023640839039721023263645100212102016000007339000046
1000000089754000023640839039721023263645100312112016000007339000047
1000000089754000023640839039721023263645100412122016000007339000048
1000000089754000023640839039721023263645100512012017000007339000049
1000000089717000023640840039720361773242900111092016000005031000050
1000000089717000023640840039720361773242900211102016000005031000051
1000000089717000023640840039720361773242900311112016000005031000052
1000000089708000023640841039725096986241500111092016000016000000053
1000000089708000023640841039725096986241500211102016000016000000054
1000000089708000023640841039725096986241500311112016000016000000055
1000000089708000023640841039725096986241500411122016000016000000056
1000000089708000023640841039725096986241500511012017000016000000057
1000000089703000023640842039720210323140600111092016000002988000058
1000000089703000023640842039720210323140600211102016000002988000059
1000000089703000023640842039720210323140600311112016000002988000060
1000000089703000023640842039720210323140600411122016000002988000061
1000000089703000023640842039720210323140600511012017000002988000062
1000000089676000023640843039727006200245700111092016000008980000063
1000000089676000023640843039727006200245700211102016000008980000064
1000000089676000023640843039727006200245700311112016000008980000065
1000000089676000023640843039727006200245700411122016000008980000066
1000000089676000023640843039727006200245700511012017000008980000067
1000000089660000023640844039729942601376800111092016000008478000068
1000000089660000023640844039729942601376800211102016000008478000069
1000000089660000023640844039729942601376800311112016000008478000070
1000000089660000023640844039729942601376800411122016000008478000071
1000000089660000023640844039729942601376800511012017000008478000072
1000000089659000023640845039729431360144900111092016000001750000073
1000000089659000023640845039729431360144900211102016000001750000074
1000000089659000023640845039729431360144900311112016000001750000075
1000000089659000023640845039729431360144900411122016000001750000076
1000000089659000023640845039729431360144900511012017000001750000077
1000000089647000023640846039720073754943200111092016000003592000078
1000000089647000023640846039720073754943200211102016000003592000079
1000000089647000023640846039720073754943200311112016000003592000080
1000000089647000023640846039720073754943200411122016000003592000081
1000000089647000023640846039720073754943200511012017000003592000082
1000000089646000023640847039720739381342400111092016000002768000083
1000000089646000023640847039720739381342400211102016000002768000084
1000000089646000023640847039720739381342400311112016000002768000085
1000000089643000023640848039720969563647000111092016000009131000086
1000000089643000023640848039720969563647000211102016000009131000087
1000000089643000023640848039720969563647000311112016000009131000088
1000000089643000023640848039720969563647000411122016000009131000089
1000000089643000023640848039720969563647000511012017000009131000090
1000000089638000023640849039720567008746100111092016000005100000091
1000000089638000023640849039720567008746100211102016000005100000092
1000000089638000023640849039720567008746100311112016000005100000093
1000000089638000023640849039720567008746100411122016000005100000094
1000000089638000023640849039720567008746100511012017000005100000095
1000000089620000023640850039720514890444500111092016000009515000096
1000000089620000023640850039720514890444500211102016000009515000097
1000000089620000023640850039720514890444500311112016000009515000098
1000000089620000023640850039720514890444500411122016000009515000099
1000000089620000023640850039720514890444500511012017000009515000100
1000000089619000023640851039720670106844800111092016000002634000101
1000000089619000023640851039720670106844800211102016000002634000102
1000000089619000023640851039720670106844800311112016000002634000103
1000000089619000023640851039720670106844800411122016000002634000104
1000000089619000023640851039720670106844800511012017000002634000105
1000000089613000023640852039720959194746100111092016000005864000106
1000000089613000023640852039720959194746100211102016000005864000107
1000000089613000023640852039720959194746100311112016000005864000108
1000000089613000023640852039720959194746100411122016000005864000109
1000000089598000023640853039720565374346100111092016000002333000110
1000000089598000023640853039720565374346100211102016000002333000111
1000000089598000023640853039720565374346100311112016000002333000112
1000000089598000023640853039720565374346100411122016000002333000113
1000000089598000023640853039720565374346100511012017000002333000114
1000000089592000023640854039720607319640700111092016000001124000115
1000000089592000023640854039720607319640700211102016000001124000116
1000000089592000023640854039720607319640700311112016000001124000117
1000000089592000023640854039720607319640700411122016000001124000118
1000000089592000023640854039720607319640700511012017000001124000119
1000000089584000023640855039721117828441700110092016000016000000120
1000000089584000023640855039721117828441700210102016000016000000121
1000000089584000023640855039721117828441700310112016000016000000122
1000000089584000023640855039721117828441700410122016000016000000123
1000000089584000023640855039721117828441700510012017000016000000124
1000000089579000023640856039727036062649100110092016000013060000125
1000000089579000023640856039727036062649100210102016000013060000126
1000000089579000023640856039727036062649100310112016000013060000127
1000000089579000023640856039727036062649100410122016000013060000128
1000000089579000023640856039727036062649100510012017000013060000129
1000000089577000023640857039720801651247000110092016000005821000130
1000000089577000023640857039720801651247000210102016000005821000131
1000000089577000023640857039720801651247000310112016000005821000132
1000000089577000023640857039720801651247000410122016000005821000133
1000000089577000023640857039720801651247000510012017000005821000134
1000000089574000023640858039720630729646100110092016000019094000135
1000000089574000023640858039720630729646100210102016000019094000136
1000000089574000023640858039720630729646100310112016000019094000137
1000000089574000023640858039720630729646100410122016000019094000138
1000000089574000023640858039720630729646100510012017000019094000139
1000000089571000023640859039721387994441500110092016000012400000140
1000000089571000023640859039721387994441500210102016000012400000141
1000000089571000023640859039721387994441500310112016000012400000142
1000000089571000023640859039721387994441500410122016000012400000143
1000000089571000023640859039721387994441500510012017000012400000144
1000000089571000023640859039721387994441500610022017000012400000145
1000000089571000023640859039721387994441500710032017000012400000146
1000000089571000023640859039721387994441500810042017000012400000147
1000000089571000023640859039721387994441500910052017000012400000148
1000000089571000023640859039721387994441501010062017000012400000149
1000000089571000023640859039721387994441501110072017000012400000150
1000000089571000023640859039721387994441501210082017000012400000151
1000000089558000023640860039720344437744400110092016000008338000152
1000000089558000023640860039720344437744400210102016000008338000153
1000000089558000023640860039720344437744400310112016000008338000154
1000000089558000023640860039720344437744400410122016000008338000155
1000000089558000023640860039720344437744400510012017000008338000156
1000000089558000023640860039720344437744400610022017000008338000157
1000000089558000023640860039720344437744400710032017000008338000158
1000000089558000023640860039720344437744400810042017000008338000159
1000000089558000023640860039720344437744400910052017000008338000160
1000000089558000023640860039720344437744401010062017000008338000161
1000000089558000023640860039720344437744401110072017000008338000162
1000000089558000023640860039720344437744401210082017000008338000163
1000000089551000023640861039720727039741400110092016000003617000164
1000000089551000023640861039720727039741400210102016000003617000165
1000000089551000023640861039720727039741400310112016000003617000166
1000000089551000023640861039720727039741400410122016000003617000167
1000000089551000023640861039720727039741400510012017000003617000168
1000000089549000023640862039720347116540100110092016000004455000169
1000000089549000023640862039720347116540100210102016000004455000170
1000000089549000023640862039720347116540100310112016000004455000171
1000000089549000023640862039720347116540100410122016000004455000172
1000000089547000023640863039721197465944500110092016000011040000173
1000000089547000023640863039721197465944500210102016000011040000174
1000000089547000023640863039721197465944500310112016000011040000175
1000000089547000023640863039721197465944500410122016000011040000176
1000000089547000023640863039721197465944500510012017000011040000177
1000000089547000023640863039721197465944500610022017000011040000178
1000000089547000023640863039721197465944500710032017000011040000179
1000000089547000023640863039721197465944500810042017000011040000180
1000000089547000023640863039721197465944500910052017000011040000181
1000000089547000023640863039721197465944501010062017000011040000182
1000000089547000023640863039721197465944501110072017000011040000183
1000000089547000023640863039721197465944501210082017000011040000184
1000000089527000023640864039721103798340800110092016000009644000185
1000000089527000023640864039721103798340800210102016000009644000186
1000000089527000023640864039721103798340800310112016000009644000187
1000000089527000023640864039721103798340800410122016000009644000188
1000000089527000023640864039721103798340800510012017000009644000189
1000000089524000023640865039720835348245200110092016000010504000190
1000000089524000023640865039720835348245200210102016000010504000191
1000000089524000023640865039720835348245200310112016000010504000192
1000000089524000023640865039720835348245200410122016000010504000193
1000000089524000023640865039720835348245200510012017000010504000194
1000000089515000023640866039729528424945300110092016000011961000195
1000000089515000023640866039729528424945300210102016000011961000196
1000000089515000023640866039729528424945300310112016000011961000197
1000000089515000023640866039729528424945300410122016000011961000198
1000000089515000023640866039729528424945300510012017000011961000199
1000000089509000023640867039722022920848700110092016000004118000200
1000000089509000023640867039722022920848700210102016000004118000201
1000000089509000023640867039722022920848700310112016000004118000202
1000000089509000023640867039722022920848700410122016000004118000203
1000000089509000023640867039722022920848700510012017000004118000204
1000000089500000023640868039720638029643300110092016000013721000205
1000000089500000023640868039720638029643300210102016000013721000206
1000000089500000023640868039720638029643300310112016000013721000207
1000000089500000023640868039720638029643300410122016000013721000208
1000000089500000023640868039720638029643300510012017000013721000209
1000000089493000023640869039720889214441300110092016000009243000210
1000000089493000023640869039720889214441300210102016000009243000211
1000000089493000023640869039720889214441300310112016000009243000212
1000000089493000023640869039720889214441300410122016000009243000213
1000000089493000023640869039720889214441300510012017000009243000214
1000000089493000023640869039720889214441300610022017000009243000215
1000000089493000023640869039720889214441300710032017000009243000216
1000000089493000023640869039720889214441300810042017000009243000217
1000000089493000023640869039720889214441300910052017000009243000218
1000000089493000023640869039720889214441301010062017000009243000219
1000000089493000023640869039720889214441301110072017000009243000220
1000000089493000023640869039720889214441301210082017000009243000221
1000000089481000023640870039726378476942000110092016000013593000222
1000000089481000023640870039726378476942000210102016000013593000223
1000000089481000023640870039726378476942000310112016000013593000224
1000000089481000023640870039726378476942000410122016000013593000225
1000000089481000023640870039726378476942000510012017000013593000226
1000000089481000023640870039726378476942000610022017000013593000227
1000000089481000023640870039726378476942000710032017000013593000228
1000000089481000023640870039726378476942000810042017000013593000229
1000000089481000023640870039726378476942000910052017000013593000230
1000000089481000023640870039726378476942001010062017000013593000231
1000000089481000023640870039726378476942001110072017000013593000232
1000000089481000023640870039726378476942001210082017000013593000233
1000000089481000023640870039726378476942001310092017000013593000234
1000000089481000023640870039726378476942001410102017000013593000235
1000000089481000023640870039726378476942001510112017000013593000236
1000000089475000023640871039721091756848600110092016000002774000237
1000000089475000023640871039721091756848600210102016000002774000238
1000000089474000023640872039720855324449000120092016000011121000239
1000000089474000023640872039720855324449000220102016000011121000240
1000000089474000023640872039720855324449000320112016000011121000241
1000000089474000023640872039720855324449000420122016000011121000242
1000000089474000023640872039720855324449000520012017000011121000243
1000000089474000023640872039720855324449000620022017000011121000244
1000000089474000023640872039720855324449000720032017000011121000245
1000000089474000023640872039720855324449000820042017000011121000246
1000000089474000023640872039720855324449000920052017000011121000247
1000000089474000023640872039720855324449001020062017000011121000248
1000000089474000023640872039720855324449001120072017000011121000249
1000000089474000023640872039720855324449001220082017000011121000250
1000000089474000023640872039720855324449001320092017000011121000251
1000000089474000023640872039720855324449001420102017000011121000252
1000000089474000023640872039720855324449001520112017000011121000253
1000000089472000023640873039720164487840200115092016000008667000254
1000000089472000023640873039720164487840200215102016000008667000255
1000000089472000023640873039720164487840200315112016000008667000256
1000000089472000023640873039720164487840200415122016000008667000257
1000000089472000023640873039720164487840200515012017000008667000258
1000000089472000023640873039720164487840200615022017000008667000259
1000000089472000023640873039720164487840200715032017000008667000260
1000000089472000023640873039720164487840200815042017000008667000261
1000000089472000023640873039720164487840200915052017000008667000262
1000000089472000023640873039720164487840201015062017000008667000263
1000000089472000023640873039720164487840201115072017000008667000264
1000000089472000023640873039720164487840201215082017000008667000265
1000000089469000023640874039721091756848600110092016000010714000266
1000000089469000023640874039721091756848600210102016000010714000267
1000000089469000023640874039721091756848600310112016000010714000268
1000000089469000023640874039721091756848600410122016000010714000269
1000000089469000023640874039721091756848600510012017000010714000270
1000000089469000023640874039721091756848600610022017000010714000271
1000000089469000023640874039721091756848600710032017000010714000272
1000000089469000023640874039721091756848600810042017000010714000273
1000000089469000023640874039721091756848600910052017000010714000274
1000000089469000023640874039721091756848601010062017000010714000275
1000000089469000023640874039721091756848601110072017000010714000276
1000000089469000023640874039721091756848601210082017000010714000277
1000000089466000023640875039720779298543100110092016000009002000278
1000000089466000023640875039720779298543100210102016000009002000279
1000000089466000023640875039720779298543100310112016000009002000280
1000000089466000023640875039720779298543100410122016000009002000281
1000000089466000023640875039720779298543100510012017000009002000282
1000000089466000023640875039720779298543100610022017000009002000283
1000000089466000023640875039720779298543100710032017000009002000284
1000000089466000023640875039720779298543100810042017000009002000285
1000000089466000023640875039720779298543100910052017000009002000286
1000000089466000023640875039720779298543101010062017000009002000287
1000000089466000023640875039720779298543101110072017000009002000288
1000000089466000023640875039720779298543101210082017000009002000289
1000000089466000023640875039720779298543101310092017000009002000290
1000000089466000023640875039720779298543101410102017000009002000291
1000000089466000023640875039720779298543101510112017000009002000292
1000000089465000023640876039720686600843300110092016000007431000293
1000000089465000023640876039720686600843300210102016000007431000294
1000000089465000023640876039720686600843300310112016000007431000295
1000000089465000023640876039720686600843300410122016000007431000296
1000000089465000023640876039720686600843300510012017000007431000297
1000000089461000023640877039724425390482300110092016000004818000298
1000000089461000023640877039724425390482300210102016000004818000299
1000000089461000023640877039724425390482300310112016000004818000300
1000000089461000023640877039724425390482300410122016000004818000301
1000000089461000023640877039724425390482300510012017000004818000302
1000000089456000023640878039720156697548400110092016000005134000303
1000000089456000023640878039720156697548400210102016000005134000304
1000000089456000023640878039720156697548400310112016000005134000305
1000000089456000023640878039720156697548400410122016000005134000306
1000000089456000023640878039720156697548400510012017000005134000307
1000000089456000023640878039720156697548400610022017000005134000308
1000000089456000023640878039720156697548400710032017000005134000309
1000000089456000023640878039720156697548400810042017000005134000310
1000000089456000023640878039720156697548400910052017000005134000311
1000000089456000023640878039720156697548401010062017000005134000312
1000000089456000023640878039720156697548401110072017000005134000313
1000000089456000023640878039720156697548401210082017000005134000314
1000000089446000023640879039720585057842000110092016000002964000315
1000000089446000023640879039720585057842000210102016000002964000316
1000000089446000023640879039720585057842000310112016000002964000317
1000000089446000023640879039720585057842000410122016000002964000318
1000000089446000023640879039720585057842000510012017000002964000319
1000000089445000023640880039720676933840800110092016000009321000320
1000000089445000023640880039720676933840800210102016000009321000321
1000000089445000023640880039720676933840800310112016000009321000322
1000000089445000023640880039720676933840800410122016000009321000323
1000000089445000023640880039720676933840800510012017000009321000324
1000000089445000023640880039720676933840800610022017000009321000325
1000000089445000023640880039720676933840800710032017000009321000326
1000000089445000023640880039720676933840800810042017000009321000327
1000000089445000023640880039720676933840800910052017000009321000328
1000000089445000023640880039720676933840801010062017000009321000329
1000000089445000023640880039720676933840801110072017000009321000330
1000000089445000023640880039720676933840801210082017000009321000331
1000000089445000023640880039720676933840801310092017000009321000332
1000000089445000023640880039720676933840801410102017000009321000333
1000000089445000023640880039720676933840801510112017000009321000334
1000000089435000023640881039729701545842000110092016000014020000335
1000000089435000023640881039729701545842000210102016000014020000336
1000000089435000023640881039729701545842000310112016000014020000337
1000000089435000023640881039729701545842000410122016000014020000338
1000000089435000023640881039729701545842000510012017000014020000339
1000000089435000023640881039729701545842000610022017000014020000340
1000000089435000023640881039729701545842000710032017000014020000341
1000000089435000023640881039729701545842000810042017000014020000342
1000000089435000023640881039729701545842000910052017000014020000343
1000000089435000023640881039729701545842001010062017000014020000344
1000000089435000023640881039729701545842001110072017000014020000345
1000000089435000023640881039729701545842001210082017000014020000346
1000000089435000023640881039729701545842001310092017000014020000347
1000000089435000023640881039729701545842001410102017000014020000348
1000000089435000023640881039729701545842001510112017000014020000349
1000000089429000023640882039720610842544000110092016000004844000350
1000000089429000023640882039720610842544000210102016000004844000351
1000000089429000023640882039720610842544000310112016000004844000352
1000000089429000023640882039720610842544000410122016000004844000353
1000000089429000023640882039720610842544000510012017000004844000354
1000000089424000023640883039720634868446600110092016000002537000355
1000000089424000023640883039720634868446600210102016000002537000356
1000000089424000023640883039720634868446600310112016000002537000357
1000000089424000023640883039720634868446600410122016000002537000358
1000000089424000023640883039720634868446600510012017000002537000359
1000000089420000023640884039727009804940200110092016000014018000360
1000000089420000023640884039727009804940200210102016000014018000361
1000000089420000023640884039727009804940200310112016000014018000362
1000000089420000023640884039727009804940200410122016000014018000363
1000000089420000023640884039727009804940200510012017000014018000364
1000000089420000023640884039727009804940200610022017000014018000365
1000000089420000023640884039727009804940200710032017000014018000366
1000000089420000023640884039727009804940200810042017000014018000367
1000000089420000023640884039727009804940200910052017000014018000368
1000000089420000023640884039727009804940201010062017000014018000369
1000000089420000023640884039727009804940201110072017000014018000370
1000000089420000023640884039727009804940201210082017000014018000371
1000000089414000023640885039720989262545500110092016000011989000372
1000000089414000023640885039720989262545500210102016000011989000373
1000000089414000023640885039720989262545500310112016000011989000374
1000000089414000023640885039720989262545500410122016000011989000375
1000000089414000023640885039720989262545500510012017000011989000376
1000000089414000023640885039720989262545500610022017000011989000377
1000000089414000023640885039720989262545500710032017000011989000378
1000000089414000023640885039720989262545500810042017000011989000379
1000000089414000023640885039720989262545500910052017000011989000380
1000000089414000023640885039720989262545501010062017000011989000381
1000000089414000023640885039720989262545501110072017000011989000382
1000000089414000023640885039720989262545501210082017000011989000383
1000000089413000023640886039727004133141900110092016000009992000384
1000000089413000023640886039727004133141900210102016000009992000385
1000000089413000023640886039727004133141900310112016000009992000386
1000000089413000023640886039727004133141900410122016000009992000387
1000000089413000023640886039727004133141900510012017000009992000388
1000000089403000023640887039721068376341500110092016000004035000389
1000000089403000023640887039721068376341500210102016000004035000390
1000000089403000023640887039721068376341500310112016000004035000391
1000000089395000023640888039720310924944800110092016000009585000392
1000000089395000023640888039720310924944800210102016000009585000393
1000000089395000023640888039720310924944800310112016000009585000394
1000000089395000023640888039720310924944800410122016000009585000395
1000000089395000023640888039720310924944800510012017000009585000396
1000000089389000023640889039728773725641500110092016000004909000397
1000000089389000023640889039728773725641500210102016000004909000398
1000000089389000023640889039728773725641500310112016000004909000399
1000000089388000023640890039720670801941800110092016000012969000400
1000000089388000023640890039720670801941800210102016000012969000401
1000000089388000023640890039720670801941800310112016000012969000402
1000000089388000023640890039720670801941800410122016000012969000403
1000000089388000023640890039720670801941800510012017000012969000404
1000000089388000023640890039720670801941800610022017000012969000405
1000000089388000023640890039720670801941800710032017000012969000406
1000000089388000023640890039720670801941800810042017000012969000407
1000000089388000023640890039720670801941800910052017000012969000408
1000000089388000023640890039720670801941801010062017000012969000409
1000000089386000023640891039724380633349100110092016000001618000410
1000000089386000023640891039724380633349100210102016000001618000411
1000000089386000023640891039724380633349100310112016000001618000412
1000000089386000023640891039724380633349100410122016000001618000413
1000000089386000023640891039724380633349100510012017000001618000414
1000000089377000023640892039720847492249600110092016000017428000415
1000000089377000023640892039720847492249600210102016000017428000416
1000000089377000023640892039720847492249600310112016000017428000417
1000000089377000023640892039720847492249600410122016000017428000418
1000000089377000023640892039720847492249600510012017000017428000419
1000000089375000023640893039722155894945300110092016000005238000420
1000000089375000023640893039722155894945300210102016000005238000421
1000000089375000023640893039722155894945300310112016000005238000422
1000000089375000023640893039722155894945300410122016000005238000423
1000000089375000023640893039722155894945300510012017000005238000424
1000000089368000023640894039720393423042300110092016000007731000425
1000000089368000023640894039720393423042300210102016000007731000426
1000000089368000023640894039720393423042300310112016000007731000427
1000000089366000023640895039720083795243300115092016000013472000428
1000000089366000023640895039720083795243300215102016000013472000429
1000000089366000023640895039720083795243300315112016000013472000430
1000000089366000023640895039720083795243300415122016000013472000431
1000000089366000023640895039720083795243300515012017000013472000432
1000000089366000023640895039720083795243300615022017000013472000433
1000000089366000023640895039720083795243300715032017000013472000434
1000000089366000023640895039720083795243300815042017000013472000435
1000000089366000023640895039720083795243300915052017000013472000436
1000000089366000023640895039720083795243301015062017000013472000437
1000000089366000023640895039720083795243301115072017000013472000438
1000000089366000023640895039720083795243301215082017000013472000439
1000000089366000023640895039720083795243301315092017000013472000440
1000000089366000023640895039720083795243301415102017000013472000441
1000000089366000023640895039720083795243301515112017000013472000442
1000000089365000023640896039720902091646700110092016000007374000443
1000000089365000023640896039720902091646700210102016000007374000444
1000000089365000023640896039720902091646700310112016000007374000445
1000000089365000023640896039720902091646700410122016000007374000446
1000000089365000023640896039720902091646700510012017000007374000447
1000000089365000023640896039720902091646700610022017000007374000448
1000000089365000023640896039720902091646700710032017000007374000449
1000000089365000023640896039720902091646700810042017000007374000450
1000000089365000023640896039720902091646700910052017000007374000451
1000000089365000023640896039720902091646701010062017000007374000452
1000000089355000023640897039720909987149000115092016000014516000453
1000000089355000023640897039720909987149000215102016000014516000454
1000000089355000023640897039720909987149000315112016000014516000455
1000000089355000023640897039720909987149000415122016000014516000456
1000000089355000023640897039720909987149000515012017000014516000457
1000000089355000023640897039720909987149000615022017000014516000458
1000000089355000023640897039720909987149000715032017000014516000459
1000000089355000023640897039720909987149000815042017000014516000460
1000000089355000023640897039720909987149000915052017000014516000461
1000000089355000023640897039720909987149001015062017000014516000462
1000000089355000023640897039720909987149001115072017000014516000463
1000000089355000023640897039720909987149001215082017000014516000464
1000000089355000023640897039720909987149001315092017000014516000465
1000000089355000023640897039720909987149001415102017000014516000466
1000000089355000023640897039720909987149001515112017000014516000467
1000000089348000023640898039720113438745800110092016000011760000468
1000000089348000023640898039720113438745800210102016000011760000469
1000000089348000023640898039720113438745800310112016000011760000470
1000000089348000023640898039720113438745800410122016000011760000471
1000000089348000023640898039720113438745800510012017000011760000472
1000000089344000023640899039727022352240600109092016000009920000473
1000000089344000023640899039727022352240600209102016000009920000474
1000000089344000023640899039727022352240600309112016000009920000475
1000000089344000023640899039727022352240600409122016000009920000476
1000000089344000023640899039727022352240600509012017000009920000477
1000000089344000023640899039727022352240600609022017000009920000478
1000000089344000023640899039727022352240600709032017000009920000479
1000000089344000023640899039727022352240600809042017000009920000480
1000000089344000023640899039727022352240600909052017000009920000481
1000000089344000023640899039727022352240601009062017000009920000482
1000000089344000023640899039727022352240601109072017000009920000483
1000000089344000023640899039727022352240601209082017000009920000484
1000000089339000023640900039727010204640900109092016000009085000485
1000000089339000023640900039727010204640900209102016000009085000486
1000000089339000023640900039727010204640900309112016000009085000487
1000000089339000023640900039727010204640900409122016000009085000488
1000000089339000023640900039727010204640900509012017000009085000489
1000000089339000023640900039727010204640900609022017000009085000490
1000000089339000023640900039727010204640900709032017000009085000491
1000000089339000023640900039727010204640900809042017000009085000492
1000000089339000023640900039727010204640900909052017000009085000493
1000000089339000023640900039727010204640901009062017000009085000494
1000000089339000023640900039727010204640901109072017000009085000495
1000000089339000023640900039727010204640901209082017000009085000496
1000000089334000023640901039727004966747500109092016000008690000497
1000000089334000023640901039727004966747500209102016000008690000498
1000000089334000023640901039727004966747500309112016000008690000499
1000000089334000023640901039727004966747500409122016000008690000500
1000000089334000023640901039727004966747500509012017000008690000501
1000000089334000023640901039727004966747500609022017000008690000502
1000000089334000023640901039727004966747500709032017000008690000503
1000000089334000023640901039727004966747500809042017000008690000504
1000000089334000023640901039727004966747500909052017000008690000505
1000000089334000023640901039727004966747501009062017000008690000506
1000000089334000023640901039727004966747501109072017000008690000507
1000000089334000023640901039727004966747501209082017000008690000508
1000000089329000023640902039725965039743400109092016000010365000509
1000000089329000023640902039725965039743400209102016000010365000510
1000000089329000023640902039725965039743400309112016000010365000511
1000000089329000023640902039725965039743400409122016000010365000512
1000000089329000023640902039725965039743400509012017000010365000513
1000000089329000023640902039725965039743400609022017000010365000514
1000000089329000023640902039725965039743400709032017000010365000515
1000000089329000023640902039725965039743400809042017000010365000516
1000000089329000023640902039725965039743400909052017000010365000517
1000000089329000023640902039725965039743401009062017000010365000518
1000000089329000023640902039725965039743401109072017000010365000519
1000000089329000023640902039725965039743401209082017000010365000520
1000000089326000023640903039720575140348700109092016000009992000521
1000000089326000023640903039720575140348700209102016000009992000522
1000000089326000023640903039720575140348700309112016000009992000523
1000000089326000023640903039720575140348700409122016000009992000524
1000000089326000023640903039720575140348700509012017000009992000525
1000000089321000023640904039721227425449400114092016000003943000526
1000000089321000023640904039721227425449400214102016000003943000527
1000000089321000023640904039721227425449400314112016000003943000528
1000000089321000023640904039721227425449400414122016000003943000529
1000000089321000023640904039721227425449400514012017000003943000530
1000000089321000023640904039721227425449400614022017000003943000531
1000000089321000023640904039721227425449400714032017000003943000532
1000000089321000023640904039721227425449400814042017000003943000533
1000000089321000023640904039721227425449400914052017000003943000534
1000000089321000023640904039721227425449401014062017000003943000535
1000000089321000023640904039721227425449401114072017000003943000536
1000000089321000023640904039721227425449401214082017000003943000537
1000000089306000023640905039728070315148700109092016000007600000538
1000000089306000023640905039728070315148700209102016000007600000539
1000000089306000023640905039728070315148700309112016000007600000540
1000000089306000023640905039728070315148700409122016000007600000541
1000000089306000023640905039728070315148700509012017000007600000542
1000000089306000023640905039728070315148700609022017000007600000543
1000000089306000023640905039728070315148700709032017000007600000544
1000000089306000023640905039728070315148700809042017000007600000545
1000000089306000023640905039728070315148700909052017000007600000546
1000000089306000023640905039728070315148701009062017000007600000547
1000000089306000023640905039728070315148701109072017000007600000548
1000000089306000023640905039728070315148701209082017000007600000549
1000000089306000023640905039728070315148701309092017000007600000550
1000000089306000023640905039728070315148701409102017000007600000551
1000000089306000023640905039728070315148701509112017000007600000552
1000000089284000023640906039720954650646000109092016000005350000553
1000000089284000023640906039720954650646000209102016000005350000554
1000000089284000023640906039720954650646000309112016000005350000555
1000000089284000023640906039720954650646000409122016000005350000556
1000000089284000023640906039720954650646000509012017000005350000557
1000000089269000023640907039720994850646400109092016000010453000558
1000000089269000023640907039720994850646400209102016000010453000559
1000000089269000023640907039720994850646400309112016000010453000560
1000000089269000023640907039720994850646400409122016000010453000561
1000000089269000023640907039720994850646400509012017000010453000562
1000000089269000023640907039720994850646400609022017000010453000563
1000000089269000023640907039720994850646400709032017000010453000564
1000000089269000023640907039720994850646400809042017000010453000565
1000000089269000023640907039720994850646400909052017000010453000566
1000000089269000023640907039720994850646401009062017000010453000567
1000000089269000023640907039720994850646401109072017000010453000568
1000000089269000023640907039720994850646401209082017000010453000569
1000000089264000023640908039721050290844000109092016000016588000570
1000000089264000023640908039721050290844000209102016000016588000571
1000000089264000023640908039721050290844000309112016000016588000572
1000000089264000023640908039721050290844000409122016000016588000573
1000000089264000023640908039721050290844000509012017000016588000574
1000000089262000023640909039720905725840400109092016000009948000575
1000000089262000023640909039720905725840400209102016000009948000576
1000000089262000023640909039720905725840400309112016000009948000577
1000000089262000023640909039720905725840400409122016000009948000578
1000000089262000023640909039720905725840400509012017000009948000579
1000000089262000023640909039720905725840400609022017000009948000580
1000000089262000023640909039720905725840400709032017000009948000581
1000000089262000023640909039720905725840400809042017000009948000582
1000000089262000023640909039720905725840400909052017000009948000583
1000000089262000023640909039720905725840401009062017000009948000584
1000000089262000023640909039720905725840401109072017000009948000585
1000000089262000023640909039720905725840401209082017000009948000586
1000000089242000023640910039720825450543800114092016000029262000587
1000000089242000023640910039720825450543800214102016000029262000588
1000000089242000023640910039720825450543800314112016000029262000589
1000000089242000023640910039720825450543800414122016000029262000590
1000000089242000023640910039720825450543800514012017000029262000591
1000000089242000023640910039720825450543800614022017000029262000592
1000000089242000023640910039720825450543800714032017000029262000593
1000000089242000023640910039720825450543800814042017000029262000594
1000000089242000023640910039720825450543800914052017000029262000595
1000000089242000023640910039720825450543801014062017000029262000596
1000000089242000023640910039720825450543801114072017000029262000597
1000000089242000023640910039720825450543801214082017000029262000598
1000000089242000023640910039720825450543801314092017000029262000599
1000000089242000023640910039720825450543801414102017000029262000600
1000000089242000023640910039720825450543801514112017000029262000601
1000000089240000023640911039720677747241000109092016000006903000602
1000000089240000023640911039720677747241000209102016000006903000603
1000000089240000023640911039720677747241000309112016000006903000604
1000000089240000023640911039720677747241000409122016000006903000605
1000000089240000023640911039720677747241000509012017000006903000606
1000000089240000023640911039720677747241000609022017000006903000607
1000000089240000023640911039720677747241000709032017000006903000608
1000000089240000023640911039720677747241000809042017000006903000609
1000000089240000023640911039720677747241000909052017000006903000610
1000000089240000023640911039720677747241001009062017000006903000611
1000000089240000023640911039720677747241001109072017000006903000612
1000000089240000023640911039720677747241001209082017000006903000613
1000000089240000023640911039720677747241001309092017000006903000614
1000000089240000023640911039720677747241001409102017000006903000615
1000000089240000023640911039720677747241001509112017000006903000616
1000000089237000023640912039728080777136800109092016000016873000617
1000000089237000023640912039728080777136800209102016000016873000618
1000000089237000023640912039728080777136800309112016000016873000619
1000000089237000023640912039728080777136800409122016000016873000620
1000000089237000023640912039728080777136800509012017000016873000621
1000000089227000023640913039720566712849700109092016000009956000622
1000000089227000023640913039720566712849700209102016000009956000623
1000000089227000023640913039720566712849700309112016000009956000624
1000000089227000023640913039720566712849700409122016000009956000625
1000000089227000023640913039720566712849700509012017000009956000626
1000000089219000023640914039720677576641600109092016000008979000627
1000000089219000023640914039720677576641600209102016000008979000628
1000000089219000023640914039720677576641600309112016000008979000629
1000000089219000023640914039720677576641600409122016000008979000630
1000000089219000023640914039720677576641600509012017000008979000631
1000000089219000023640914039720677576641600609022017000008979000632
1000000089219000023640914039720677576641600709032017000008979000633
1000000089219000023640914039720677576641600809042017000008979000634
1000000089219000023640914039720677576641600909052017000008979000635
1000000089219000023640914039720677576641601009062017000008979000636
1000000089219000023640914039720677576641601109072017000008979000637
1000000089219000023640914039720677576641601209082017000008979000638
1000000089205000023640915039720561411336300109102016000019381000639
1000000089205000023640915039720561411336300209112016000019381000640
1000000089205000023640915039720561411336300309122016000019381000641
1000000089205000023640915039720561411336300409012017000019381000642
1000000089205000023640915039720561411336300509022017000019381000643
1000000089205000023640915039720561411336300609032017000019381000644
1000000089205000023640915039720561411336300709042017000019381000645
1000000089205000023640915039720561411336300809052017000019381000646
1000000089205000023640915039720561411336300909062017000019381000647
1000000089205000023640915039720561411336301009072017000019381000648
1000000089205000023640915039720561411336301109082017000019381000649
1000000089205000023640915039720561411336301209092017000019381000650
1000000089196000023640916039721250832349700114092016000008704000651
1000000089196000023640916039721250832349700214102016000008704000652
1000000089196000023640916039721250832349700314112016000008704000653
1000000089196000023640916039721250832349700414122016000008704000654
1000000089196000023640916039721250832349700514012017000008704000655
1000000089196000023640916039721250832349700614022017000008704000656
1000000089196000023640916039721250832349700714032017000008704000657
1000000089196000023640916039721250832349700814042017000008704000658
1000000089196000023640916039721250832349700914052017000008704000659
1000000089196000023640916039721250832349701014062017000008704000660
1000000089196000023640916039721250832349701114072017000008704000661
1000000089196000023640916039721250832349701214082017000008704000662
1000000089196000023640916039721250832349701314092017000008704000663
1000000089196000023640916039721250832349701414102017000008704000664
1000000089196000023640916039721250832349701514112017000008704000665
1000000089195000023640917039720166778940600114092016000013938000666
1000000089195000023640917039720166778940600214102016000013938000667
1000000089195000023640917039720166778940600314112016000013938000668
1000000089195000023640917039720166778940600414122016000013938000669
1000000089195000023640917039720166778940600514012017000013938000670
1000000089195000023640917039720166778940600614022017000013938000671
1000000089195000023640917039720166778940600714032017000013938000672
1000000089195000023640917039720166778940600814042017000013938000673
1000000089195000023640917039720166778940600914052017000013938000674
1000000089195000023640917039720166778940601014062017000013938000675
1000000089195000023640917039720166778940601114072017000013938000676
1000000089195000023640917039720166778940601214082017000013938000677
1000000089194000023640918039720623934949600109092016000003916000678
1000000089194000023640918039720623934949600209102016000003916000679
1000000089194000023640918039720623934949600309112016000003916000680
1000000089194000023640918039720623934949600409122016000003916000681
1000000089194000023640918039720623934949600509012017000003916000682
1000000089194000023640918039720623934949600609022017000003916000683
1000000089194000023640918039720623934949600709032017000003916000684
1000000089194000023640918039720623934949600809042017000003916000685
1000000089194000023640918039720623934949600909052017000003916000686
1000000089194000023640918039720623934949601009062017000003916000687
1000000089194000023640918039720623934949601109072017000003916000688
1000000089194000023640918039720623934949601209082017000003916000689
1000000089181000023640919039728746425047800109092016000013336000690
1000000089181000023640919039728746425047800209102016000013336000691
1000000089181000023640919039728746425047800309112016000013336000692
1000000089181000023640919039728746425047800409122016000013336000693
1000000089181000023640919039728746425047800509012017000013336000694
1000000089181000023640919039728746425047800609022017000013336000695
1000000089181000023640919039728746425047800709032017000013336000696
1000000089181000023640919039728746425047800809042017000013336000697
1000000089181000023640919039728746425047800909052017000013336000698
1000000089181000023640919039728746425047801009062017000013336000699
1000000089181000023640919039728746425047801109072017000013336000700
1000000089181000023640919039728746425047801209082017000013336000701
1000000089181000023640919039728746425047801309092017000013336000702
1000000089181000023640919039728746425047801409102017000013336000703
1000000089181000023640919039728746425047801509112017000013336000704
1000000089179000023640920039720088734749500109092016000003018000705
1000000089179000023640920039720088734749500209102016000003018000706
1000000089179000023640920039720088734749500309112016000003018000707
1000000089179000023640920039720088734749500409122016000003018000708
1000000089179000023640920039720088734749500509012017000003018000709
1000000089179000023640920039720088734749500609022017000003018000710
1000000089179000023640920039720088734749500709032017000003018000711
1000000089179000023640920039720088734749500809042017000003018000712
1000000089179000023640920039720088734749500909052017000003018000713
1000000089179000023640920039720088734749501009062017000003018000714
1000000089179000023640920039720088734749501109072017000003018000715
1000000089179000023640920039720088734749501209082017000003018000716
1000000089176000023640921039729668679040000109092016000007083000717
1000000089176000023640921039729668679040000209102016000007083000718
1000000089176000023640921039729668679040000309112016000007083000719
1000000089176000023640921039729668679040000409122016000007083000720
1000000089176000023640921039729668679040000509012017000007083000721
1000000089169000023640922039720443575444400109092016000005480000722
1000000089169000023640922039720443575444400209102016000005480000723
1000000089169000023640922039720443575444400309112016000005480000724
1000000089168000023640923039724899380844900114092016000011316000725
1000000089168000023640923039724899380844900214102016000011316000726
1000000089168000023640923039724899380844900314112016000011316000727
1000000089168000023640923039724899380844900414122016000011316000728
1000000089168000023640923039724899380844900514012017000011316000729
1000000089168000023640923039724899380844900614022017000011316000730
1000000089168000023640923039724899380844900714032017000011316000731
1000000089168000023640923039724899380844900814042017000011316000732
1000000089168000023640923039724899380844900914052017000011316000733
1000000089168000023640923039724899380844901014062017000011316000734
1000000089168000023640923039724899380844901114072017000011316000735
1000000089168000023640923039724899380844901214082017000011316000736
1000000089166000023640924039720575185767400109092016000007789000737
1000000089166000023640924039720575185767400209102016000007789000738
1000000089166000023640924039720575185767400309112016000007789000739
1000000089166000023640924039720575185767400409122016000007789000740
1000000089166000023640924039720575185767400509012017000007789000741
1000000089166000023640924039720575185767400609022017000007789000742
1000000089166000023640924039720575185767400709032017000007789000743
1000000089166000023640924039720575185767400809042017000007789000744
1000000089166000023640924039720575185767400909052017000007789000745
1000000089166000023640924039720575185767401009062017000007789000746
1000000089166000023640924039720575185767401109072017000007789000747
1000000089166000023640924039720575185767401209082017000007789000748
1000000089166000023640924039720575185767401309092017000007789000749
1000000089166000023640924039720575185767401409102017000007789000750
1000000089166000023640924039720575185767401509112017000007789000751
1000000089160000023640925039720527133841000109092016000003469000752
1000000089160000023640925039720527133841000209102016000003469000753
1000000089160000023640925039720527133841000309112016000003469000754
1000000089160000023640925039720527133841000409122016000003469000755
1000000089160000023640925039720527133841000509012017000003469000756
1000000089157000023640926039721072762048700109092016000018283000757
1000000089155000023640927039720607038144000109092016000004694000758
1000000089155000023640927039720607038144000209102016000004694000759
1000000089155000023640927039720607038144000309112016000004694000760
1000000089155000023640927039720607038144000409122016000004694000761
1000000089155000023640927039720607038144000509012017000004694000762
1000000089155000023640927039720607038144000609022017000004694000763
1000000089155000023640927039720607038144000709032017000004694000764
1000000089155000023640927039720607038144000809042017000004694000765
1000000089155000023640927039720607038144000909052017000004694000766
1000000089155000023640927039720607038144001009062017000004694000767
1000000089155000023640927039720607038144001109072017000004694000768
1000000089155000023640927039720607038144001209082017000004694000769
1000000089144000023640928039721184260745600109092016000019030000770
1000000089144000023640928039721184260745600209102016000019030000771
1000000089144000023640928039721184260745600309112016000019030000772
1000000089144000023640928039721184260745600409122016000019030000773
1000000089144000023640928039721184260745600509012017000019030000774
1000000089144000023640928039721184260745600609022017000019030000775
1000000089144000023640928039721184260745600709032017000019030000776
1000000089144000023640928039721184260745600809042017000019030000777
1000000089144000023640928039721184260745600909052017000019030000778
1000000089144000023640928039721184260745601009062017000019030000779
1000000089144000023640928039721184260745601109072017000019030000780
1000000089144000023640928039721184260745601209082017000019030000781
1000000089144000023640928039721184260745601309092017000019030000782
1000000089144000023640928039721184260745601409102017000019030000783
1000000089144000023640928039721184260745601509112017000019030000784
1000000089138000023640929039720535075049600109092016000008930000785
1000000089138000023640929039720535075049600209102016000008930000786
1000000089138000023640929039720535075049600309112016000008930000787
1000000089138000023640929039720535075049600409122016000008930000788
1000000089138000023640929039720535075049600509012017000008930000789
1000000089138000023640929039720535075049600609022017000008930000790
1000000089138000023640929039720535075049600709032017000008930000791
1000000089138000023640929039720535075049600809042017000008930000792
1000000089138000023640929039720535075049600909052017000008930000793
1000000089138000023640929039720535075049601009062017000008930000794
1000000089138000023640929039720535075049601109072017000008930000795
1000000089138000023640929039720535075049601209082017000008930000796
1000000089138000023640929039720535075049601309092017000008930000797
1000000089138000023640929039720535075049601409102017000008930000798
1000000089138000023640929039720535075049601509112017000008930000799
1000000089134000023640930039720198374046200109092016000010000000800
1000000089134000023640930039720198374046200209102016000010000000801
1000000089134000023640930039720198374046200309112016000010000000802
1000000089134000023640930039720198374046200409122016000010000000803
1000000089134000023640930039720198374046200509012017000010000000804
1000000089131000023640931039728070315148700109092016000007329000805
1000000089131000023640931039728070315148700209102016000007329000806
1000000089131000023640931039728070315148700309112016000007329000807
1000000089131000023640931039728070315148700409122016000007329000808
1000000089131000023640931039728070315148700509012017000007329000809
1000000089131000023640931039728070315148700609022017000007329000810
1000000089131000023640931039728070315148700709032017000007329000811
1000000089131000023640931039728070315148700809042017000007329000812
1000000089131000023640931039728070315148700909052017000007329000813
1000000089131000023640931039728070315148701009062017000007329000814
1000000089131000023640931039728070315148701109072017000007329000815
1000000089131000023640931039728070315148701209082017000007329000816
1000000089131000023640931039728070315148701309092017000007329000817
1000000089131000023640931039728070315148701409102017000007329000818
1000000089131000023640931039728070315148701509112017000007329000819
1000000089105000023640932039727001127043800207102016000008018000820
1000000089105000023640932039727001127043800307112016000008018000821
1000000089105000023640932039727001127043800407122016000008018000822
1000000089105000023640932039727001127043800507012017000008018000823
1000000089105000023640932039727001127043800607022017000008018000824
1000000089101000023640933039720175674043700207102016000015104000825
1000000089101000023640933039720175674043700307112016000015104000826
1000000089101000023640933039720175674043700407122016000015104000827
1000000089096000023640934039720168370743500207102016000008837000828
1000000089096000023640934039720168370743500307112016000008837000829
1000000089096000023640934039720168370743500407122016000008837000830
1000000089096000023640934039720168370743500507012017000008837000831
1000000089096000023640934039720168370743500607022017000008837000832
1000000089096000023640934039720168370743500707032017000008837000833
1000000089096000023640934039720168370743500807042017000008837000834
1000000089096000023640934039720168370743500907052017000008837000835
1000000089096000023640934039720168370743501007062017000008837000836
1000000089096000023640934039720168370743501107072017000008837000837
1000000089096000023640934039720168370743501207082017000008837000838
1000000089096000023640934039720168370743501307092017000008837000839
1000000089096000023640934039720168370743501407102017000008837000840
1000000089096000023640934039720168370743501507112017000008837000841
1000000089086000023640935039720755626443200207102016000002097000842
1000000089086000023640935039720755626443200307112016000002097000843
1000000089086000023640935039720755626443200407122016000002097000844
1000000089086000023640935039720755626443200507012017000002097000845
1000000089077000023640936039720584408048300207102016000008706000846
1000000089077000023640936039720584408048300307112016000008706000847
1000000089077000023640936039720584408048300407122016000008706000848
1000000089077000023640936039720584408048300507012017000008706000849
1000000089077000023640936039720584408048300607022017000008706000850
1000000089077000023640936039720584408048300707032017000008706000851
1000000089077000023640936039720584408048300807042017000008706000852
1000000089077000023640936039720584408048300907052017000008706000853
1000000089077000023640936039720584408048301007062017000008706000854
1000000089077000023640936039720584408048301107072017000008706000855
1000000089077000023640936039720584408048301207082017000008706000856
1000000089077000023640936039720584408048301307092017000008706000857
1000000089077000023640936039720584408048301407102017000008706000858
1000000089077000023640936039720584408048301507112017000008706000859
1000000089075000023640937039724297171341500207102016000010000000860
1000000089075000023640937039724297171341500307112016000010000000861
1000000089075000023640937039724297171341500407122016000010000000862
1000000089075000023640937039724297171341500507012017000010000000863
1000000089059000023640938039720180156942800207102016000010302000864
1000000089059000023640938039720180156942800307112016000010302000865
1000000089059000023640938039720180156942800407122016000010302000866
1000000089059000023640938039720180156942800507012017000010302000867
1000000089059000023640938039720180156942800607022017000010302000868
1000000089059000023640938039720180156942800707032017000010302000869
1000000089059000023640938039720180156942800807042017000010302000870
1000000089059000023640938039720180156942800907052017000010302000871
1000000089059000023640938039720180156942801007062017000010302000872
1000000089059000023640938039720180156942801107072017000010302000873
1000000089059000023640938039720180156942801207082017000010302000874
1000000089049000023640939039720603839142800112092016000010431000875
1000000089049000023640939039720603839142800212102016000010431000876
1000000089049000023640939039720603839142800312112016000010431000877
1000000089049000023640939039720603839142800412122016000010431000878
1000000089049000023640939039720603839142800512012017000010431000879
1000000089049000023640939039720603839142800612022017000010431000880
1000000089049000023640939039720603839142800712032017000010431000881
1000000089049000023640939039720603839142800812042017000010431000882
1000000089049000023640939039720603839142800912052017000010431000883
1000000089049000023640939039720603839142801012062017000010431000884
1000000089049000023640939039720603839142801112072017000010431000885
1000000089049000023640939039720603839142801212082017000010431000886
1000000089049000023640939039720603839142801312092017000010431000887
1000000089049000023640939039720603839142801412102017000010431000888
1000000089049000023640939039720603839142801512112017000010431000889
1000000089040000023640940039720629163340000207102016000008676000890
1000000089040000023640940039720629163340000307112016000008676000891
1000000089040000023640940039720629163340000407122016000008676000892
1000000089040000023640940039720629163340000507012017000008676000893
1000000089019000023640941039727030473540000207102016000003599000894
1000000089019000023640941039727030473540000307112016000003599000895
1000000089019000023640941039727030473540000407122016000003599000896
1000000089019000023640941039727030473540000507012017000003599000897
1000000089019000023640941039727030473540000607022017000003599000898
1000000089019000023640941039727030473540000707032017000003599000899
1000000089019000023640941039727030473540000807042017000003599000900
1000000089019000023640941039727030473540000907052017000003599000901
1000000089019000023640941039727030473540001007062017000003599000902
1000000089011000023640942039720352040947000207102016000002705000903
1000000089011000023640942039720352040947000307112016000002705000904
1000000089011000023640942039720352040947000407122016000002705000905
1000000089011000023640942039720352040947000507012017000002705000906
1000000089000000023640943039720280109849300207102016000011701000907
1000000089000000023640943039720280109849300307112016000011701000908
1000000089000000023640943039720280109849300407122016000011701000909
1000000089000000023640943039720280109849300507012017000011701000910
1000000089000000023640943039720280109849300607022017000011701000911
1000000089000000023640943039720280109849300707032017000011701000912
1000000089000000023640943039720280109849300807042017000011701000913
1000000089000000023640943039720280109849300907052017000011701000914
1000000089000000023640943039720280109849301007062017000011701000915
1000000089000000023640943039720280109849301107072017000011701000916
1000000089000000023640943039720280109849301207082017000011701000917
1000000088996000023640944039720345559460300207102016000005656000918
1000000088996000023640944039720345559460300307112016000005656000919
1000000088996000023640944039720345559460300407122016000005656000920
1000000088996000023640944039720345559460300507012017000005656000921
1000000088996000023640944039720345559460300607022017000005656000922
1000000088996000023640944039720345559460300707032017000005656000923
1000000088996000023640944039720345559460300807042017000005656000924
1000000088996000023640944039720345559460300907052017000005656000925
1000000088996000023640944039720345559460301007062017000005656000926
1000000088996000023640944039720345559460301107072017000005656000927
1000000088996000023640944039720345559460301207082017000005656000928
1000000088996000023640944039720345559460301307092017000005656000929
1000000088996000023640944039720345559460301407102017000005656000930
1000000088996000023640944039720345559460301507112017000005656000931
1000000088993000023640945039727001419842800207102016000015815000932
1000000088993000023640945039727001419842800307112016000015815000933
1000000088993000023640945039727001419842800407122016000015815000934
1000000088993000023640945039727001419842800507012017000015815000935
1000000088993000023640945039727001419842800607022017000015815000936
1000000088993000023640945039727001419842800707032017000015815000937
1000000088993000023640945039727001419842800807042017000015815000938
1000000088993000023640945039727001419842800907052017000015815000939
1000000088993000023640945039727001419842801007062017000015815000940
1000000088993000023640945039727001419842801107072017000015815000941
1000000088993000023640945039727001419842801207082017000015815000942
1000000088993000023640945039727001419842801307092017000015815000943
1000000088993000023640945039727001419842801407102017000015815000944
1000000088993000023640945039727001419842801507112017000015815000945
1000000088972000023640946039721098019849600106102016000006816000946
1000000088972000023640946039721098019849600206112016000006816000947
1000000088972000023640946039721098019849600306122016000006816000948
1000000088972000023640946039721098019849600406012017000006816000949
1000000088972000023640946039721098019849600506022017000006816000950
1000000088972000023640946039721098019849600606032017000006816000951
1000000088972000023640946039721098019849600706042017000006816000952
1000000088972000023640946039721098019849600806052017000006816000953
1000000088972000023640946039721098019849600906062017000006816000954
1000000088972000023640946039721098019849601006072017000006816000955
1000000088951000023640947039726376769446800206102016000018582000956
1000000088951000023640947039726376769446800306112016000018582000957
1000000088951000023640947039726376769446800406122016000018582000958
1000000088951000023640947039726376769446800506012017000018582000959
1000000088951000023640947039726376769446800606022017000018582000960
1000000088951000023640947039726376769446800706032017000018582000961
1000000088951000023640947039726376769446800806042017000018582000962
1000000088951000023640947039726376769446800906052017000018582000963
1000000088951000023640947039726376769446801006062017000018582000964
1000000088951000023640947039726376769446801106072017000018582000965
1000000088951000023640947039726376769446801206082017000018582000966
1000000088951000023640947039726376769446801306092017000018582000967
1000000088951000023640947039726376769446801406102017000018582000968
1000000088951000023640947039726376769446801506112017000018582000969
1000000088940000023640948039720631350640500206102016000009198000970
1000000088940000023640948039720631350640500306112016000009198000971
1000000088940000023640948039720631350640500406122016000009198000972
1000000088940000023640948039720631350640500506012017000009198000973
1000000088940000023640948039720631350640500606022017000009198000974
1000000088940000023640948039720631350640500706032017000009198000975
1000000088940000023640948039720631350640500806042017000009198000976
1000000088940000023640948039720631350640500906052017000009198000977
1000000088940000023640948039720631350640501006062017000009198000978
1000000088940000023640948039720631350640501106072017000009198000979
1000000088940000023640948039720631350640501206082017000009198000980
1000000088925000023640949039720881764647400206102016000008523000981
1000000088925000023640949039720881764647400306112016000008523000982
1000000088925000023640949039720881764647400406122016000008523000983
1000000088925000023640949039720881764647400506012017000008523000984
1000000088922000023640950039720646992040300106102016000021750000985
1000000088922000023640950039720646992040300206112016000021750000986
1000000088922000023640950039720646992040300306122016000021750000987
1000000088922000023640950039720646992040300406012017000021750000988
1000000088922000023640950039720646992040300506022017000021750000989
1000000088922000023640950039720646992040300606032017000021750000990
1000000088922000023640950039720646992040300706042017000021750000991
1000000088922000023640950039720646992040300806052017000021750000992
1000000088922000023640950039720646992040300906062017000021750000993
1000000088922000023640950039720646992040301006072017000021750000994
1000000088922000023640950039720646992040301106082017000021750000995
1000000088922000023640950039720646992040301206092017000021750000996
1000000088921000023640951039720192689045000206102016000003564000997
1000000088921000023640951039720192689045000306112016000003564000998
1000000088921000023640951039720192689045000406122016000003564000999
1000000088921000023640951039720192689045000506012017000003564001000
1000000088912000023640952039720774904941000206102016000006488001001
1000000088912000023640952039720774904941000306112016000006488001002
1000000088912000023640952039720774904941000406122016000006488001003
1000000088912000023640952039720774904941000506012017000006488001004
1000000088912000023640952039720774904941000606022017000006488001005
1000000088912000023640952039720774904941000706032017000006488001006
1000000088912000023640952039720774904941000806042017000006488001007
1000000088912000023640952039720774904941000906052017000006488001008
1000000088912000023640952039720774904941001006062017000006488001009
1000000088912000023640952039720774904941001106072017000006488001010
1000000088912000023640952039720774904941001206082017000006488001011
1000000088909000023640953039720368215148600206102016000029798001012
1000000088909000023640953039720368215148600306112016000029798001013
1000000088909000023640953039720368215148600406122016000029798001014
1000000088909000023640953039720368215148600506012017000029798001015
1000000088878000023640954039720365829978900206102016000007128001016
1000000088878000023640954039720365829978900306112016000007128001017
1000000088878000023640954039720365829978900406122016000007128001018
1000000088878000023640954039720365829978900506012017000007128001019
1000000088871000023640955039720483867748000206102016000003527001020
1000000088871000023640955039720483867748000306112016000003527001021
1000000088851000023640956039725969515345300205102016000016000001022
1000000088851000023640956039725969515345300305112016000016000001023
1000000088851000023640956039725969515345300405122016000016000001024
1000000088851000023640956039725969515345300505012017000016000001025
1000000088843000023640957039720591734141900205102016000003818001026
1000000088843000023640957039720591734141900305112016000003818001027
1000000088843000023640957039720591734141900405122016000003818001028
1000000088843000023640957039720591734141900505012017000003818001029
1000000088842000023640958039721197792546400115092016000009816001030
1000000088842000023640958039721197792546400215102016000009816001031
1000000088842000023640958039721197792546400315112016000009816001032
1000000088842000023640958039721197792546400415122016000009816001033
1000000088842000023640958039721197792546400515012017000009816001034
1000000088842000023640958039721197792546400615022017000009816001035
1000000088842000023640958039721197792546400715032017000009816001036
1000000088842000023640958039721197792546400815042017000009816001037
1000000088842000023640958039721197792546400915052017000009816001038
1000000088842000023640958039721197792546401015062017000009816001039
1000000088842000023640958039721197792546401115072017000009816001040
1000000088842000023640958039721197792546401215082017000009816001041
1000000088842000023640958039721197792546401315092017000009816001042
1000000088842000023640958039721197792546401415102017000009816001043
1000000088842000023640958039721197792546401515112017000009816001044
1000000088835000023640959039725126267345300205102016000010000001045
1000000088835000023640959039725126267345300305112016000010000001046
1000000088835000023640959039725126267345300405122016000010000001047
1000000088835000023640959039725126267345300505012017000010000001048
1000000088816000023640960039720953338347000115092016000013418001049
1000000088816000023640960039720953338347000215102016000013418001050
1000000088816000023640960039720953338347000315112016000013418001051
1000000088816000023640960039720953338347000415122016000013418001052
1000000088816000023640960039720953338347000515012017000013418001053
1000000088816000023640960039720953338347000615022017000013418001054
1000000088816000023640960039720953338347000715032017000013418001055
1000000088816000023640960039720953338347000815042017000013418001056
1000000088816000023640960039720953338347000915052017000013418001057
1000000088816000023640960039720953338347001015062017000013418001058
1000000088816000023640960039720953338347001115072017000013418001059
1000000088816000023640960039720953338347001215082017000013418001060
1000000088816000023640960039720953338347001315092017000013418001061
1000000088816000023640960039720953338347001415102017000013418001062
1000000088816000023640960039720953338347001515112017000013418001063
1000000088794000023640961039720638624843000205102016000003515001064
1000000088794000023640961039720638624843000305112016000003515001065
1000000088794000023640961039720638624843000405122016000003515001066
1000000088794000023640961039720638624843000505012017000003515001067
1000000088750000023640962039729166248647200205102016000005910001068
1000000088750000023640962039729166248647200305112016000005910001069
1000000088750000023640962039729166248647200405122016000005910001070
1000000088750000023640962039729166248647200505012017000005910001071
1000000088744000023640963039721055960040200205102016000003707001072
1000000088744000023640963039721055960040200305112016000003707001073
1000000088744000023640963039721055960040200405122016000003707001074
1000000088744000023640963039721055960040200505012017000003707001075
1000000088744000023640963039721055960040200605022017000003707001076
1000000088706000023640964039720972350845100205102016000003723001077
1000000088706000023640964039720972350845100305112016000003723001078
1000000088706000023640964039720972350845100405122016000003723001079
1000000088706000023640964039720972350845100505012017000003723001080
1000000088665000023640965039721032324589700204102016000009266001081
1000000088665000023640965039721032324589700304112016000009266001082
1000000088665000023640965039721032324589700404122016000009266001083
1000000088665000023640965039721032324589700504012017000009266001084
1000000088661000023640966039727012068140400204102016000001944001085
1000000088661000023640966039727012068140400304112016000001944001086
1000000088661000023640966039727012068140400404122016000001944001087
1000000088661000023640966039727012068140400504012017000001944001088
1000000088651000023640967039722814512749100204102016000011123001089
1000000088651000023640967039722814512749100304112016000011123001090
1000000088651000023640967039722814512749100404122016000011123001091
1000000088651000023640967039722814512749100504012017000011123001092
1000000088492000023640968039727205174449100204102016000001756001093
1000000088492000023640968039727205174449100304112016000001756001094
1000000088492000023640968039727205174449100404122016000001756001095
1000000088492000023640968039727205174449100504012017000001756001096
1000000088482000023640969039720166774340600203102016000007294001097
1000000088482000023640969039720166774340600303112016000007294001098
1000000088416000023640970039725037137144900203102016000002421001099
1000000088416000023640970039725037137144900303112016000002421001100
1000000088416000023640970039725037137144900403122016000002421001101
1000000088416000023640970039725037137144900503012017000002421001102
1000000088275000023640971039720290916844100203102016000001993001103
1000000088275000023640971039720290916844100303112016000001993001104
1000000088275000023640971039720290916844100403122016000001993001105
1000000088275000023640971039720290916844100503012017000001993001106
1000000088273000023640972039720465100449000203102016000001874001107
1000000088273000023640972039720465100449000303112016000001874001108
1000000088242000023640973039721002162343000202102016000015000001109
1000000088242000023640973039721002162343000302112016000015000001110
1000000088242000023640973039721002162343000402122016000015000001111
1000000088227000023640974039720436618745000202102016000003368001112
1000000088227000023640974039720436618745000302112016000003368001113
1000000088227000023640974039720436618745000402122016000003368001114
1000000088227000023640974039720436618745000502012017000003368001115
1000000088216000023640975039727213208624900202102016000001745001116
1000000088216000023640975039727213208624900302112016000001745001117
1000000088216000023640975039727213208624900402122016000001745001118
1000000088216000023640975039727213208624900502012017000001745001119
1000000088161000023640976039721548299545300202102016000004035001120
1000000088161000023640976039721548299545300302112016000004035001121
1000000088161000023640976039721548299545300402122016000004035001122
1000000088161000023640976039721548299545300502012017000004035001123
1000000088143000023640977039720672782235200202102016000015314001124
1000000088143000023640977039720672782235200302112016000015314001125
1000000088143000023640977039720672782235200402122016000015314001126
1000000088143000023640977039720672782235200502012017000015314001127
1000000087998000023640978039720824079442400230092016000023708001128
1000000087998000023640978039720824079442400331102016000023708001129
1000000087998000023640978039720824079442400430112016000023708001130
1000000087998000023640978039720824079442400531122016000023708001131
1000000087996000023640979039720210325143100230092016000002970001132
1000000087996000023640979039720210325143100331102016000002970001133
1000000087996000023640979039720210325143100430112016000002970001134
1000000087996000023640979039720210325143100531122016000002970001135
1000000087924000023640980039720451987748200230092016000002588001136
1000000087924000023640980039720451987748200331102016000002588001137
1000000087924000023640980039720451987748200430112016000002588001138
1000000087831000023640981039723009742843400230092016000003469001139
1000000087831000023640981039723009742843400330102016000003469001140
1000000087831000023640981039723009742843400430112016000003469001141
1000000087831000023640981039723009742843400530122016000003469001142
1000000087828000023640982039720562525947000230092016000002856001143
1000000087828000023640982039720562525947000330102016000002856001144
1000000087828000023640982039720562525947000430112016000002856001145
1000000087828000023640982039720562525947000530122016000002856001146
1000000087780000023640983039727214729644900230092016000011983001147
1000000087780000023640983039727214729644900330102016000011983001148
1000000087780000023640983039727214729644900430112016000011983001149
1000000087780000023640983039727214729644900530122016000011983001150
1000000087670000023640984039720661325440100230092016000003682001151
1000000087670000023640984039720661325440100330102016000003682001152
1000000087670000023640984039720661325440100430112016000003682001153
1000000087665000023640985039720639905242400230092016000003469001154
1000000087665000023640985039720639905242400330102016000003469001155
1000000087665000023640985039720639905242400430112016000003469001156
1000000087665000023640985039720639905242400530122016000003469001157
1000000087639000023640986039726602230441500230092016000001756001158
1000000087639000023640986039726602230441500330102016000001756001159
1000000087639000023640986039726602230441500430112016000001756001160
1000000087639000023640986039726602230441500530122016000001756001161
1000000087622000023640987039720314528849000229092016000003645001162
1000000087622000023640987039720314528849000329102016000003645001163
1000000087622000023640987039720314528849000429112016000003645001164
1000000087622000023640987039720314528849000529122016000003645001165
1000000087582000023640988039720276129849700229092016000009924001166
1000000087582000023640988039720276129849700329102016000009924001167
1000000087582000023640988039720276129849700429112016000009924001168
1000000087582000023640988039720276129849700529122016000009924001169
1000000087579000023640989039720674859340900229092016000003611001170
1000000087579000023640989039720674859340900329102016000003611001171
1000000087579000023640989039720674859340900429112016000003611001172
1000000087579000023640989039720674859340900529122016000003611001173
1000000087566000023640990039720705165345800229092016000005858001174
1000000087566000023640990039720705165345800329102016000005858001175
1000000087566000023640990039720705165345800429112016000005858001176
1000000087566000023640990039720705165345800529122016000005858001177
1000000087563000023640991039720445514540000229092016000005380001178
1000000087563000023640991039720445514540000329102016000005380001179
1000000087563000023640991039720445514540000429112016000005380001180
1000000087563000023640991039720445514540000529122016000005380001181
1000000087549000023640992039720592695840700229092016000003494001182
1000000087549000023640992039720592695840700329102016000003494001183
1000000087549000023640992039720592695840700429112016000003494001184
1000000087549000023640992039720592695840700529122016000003494001185
1000000087530000023640993039721553570340000229092016000006825001186
1000000087530000023640993039721553570340000329102016000006825001187
1000000087530000023640993039721553570340000429112016000006825001188
1000000087526000023640994039721217148949900229092016000001780001189
1000000087526000023640994039721217148949900329102016000001780001190
1000000087526000023640994039721217148949900429112016000001780001191
1000000087526000023640994039721217148949900529122016000001780001192
1000000087454000023640996039720918905443100229092016000004747001193
1000000087454000023640996039720918905443100329102016000004747001194
1000000087454000023640996039720918905443100429112016000004747001195
1000000087454000023640996039720918905443100529122016000004747001196
1000000087403000023640997039720351407448800229092016000020288001197
1000000087403000023640997039720351407448800329102016000020288001198
1000000087403000023640997039720351407448800429112016000020288001199
1000000087403000023640997039720351407448800529122016000020288001200
1000000087394000023640998039721095651641600228092016000005636001201
1000000087394000023640998039721095651641600328102016000005636001202
1000000087394000023640998039721095651641600428112016000005636001203
1000000087394000023640998039721095651641600528122016000005636001204
1000000087186000023640999039720562403540300228092016000003723001205
1000000087186000023640999039720562403540300328102016000003723001206
1000000087186000023640999039720562403540300428112016000003723001207
1000000087186000023640999039720562403540300528122016000003723001208
1000000087145000023641000039727506683148700228092016000001993001209
1000000087145000023641000039727506683148700328102016000001993001210
1000000087145000023641000039727506683148700428112016000001993001211
1000000087145000023641000039727506683148700528122016000001993001212
1000000087099000023641001039720363094148600228092016000011840001213
1000000087099000023641001039720363094148600328102016000011840001214
1000000087099000023641001039720363094148600428112016000011840001215
1000000087099000023641001039720363094148600528122016000011840001216
1000000087039000023641002039724814722249100227092016000013600001217
1000000087039000023641002039724814722249100327102016000013600001218
1000000087039000023641002039724814722249100427112016000013600001219
1000000087039000023641002039724814722249100527122016000013600001220
1000000087027000023641003039720511766246600227092016000016230001221
1000000087027000023641003039720511766246600327102016000016230001222
1000000087027000023641003039720511766246600427112016000016230001223
1000000087027000023641003039720511766246600527122016000016230001224
1000000086965000023641004039720875914349500227092016000011225001225
1000000086965000023641004039720875914349500327102016000011225001226
1000000086965000023641004039720875914349500427112016000011225001227
1000000086884000023641005039729541811345300227092016000004842001228
1000000086884000023641005039729541811345300327102016000004842001229
1000000086884000023641005039729541811345300427112016000004842001230
1000000086884000023641005039729541811345300527122016000004842001231
1000000086859000023641006039720703446347600226092016000003228001232
1000000086859000023641006039720703446347600326102016000003228001233
1000000086854000023641007039720253444047000226092016000005398001234
1000000086854000023641007039720253444047000326102016000005398001235
1000000086854000023641007039720253444047000426112016000005398001236
1000000086842000023641008039720410056146600226092016000005238001237
1000000086842000023641008039720410056146600326102016000005238001238
1000000086842000023641008039720410056146600426112016000005238001239
1000000086842000023641008039720410056146600526122016000005238001240
1000000086837000023641009039720667930140800226092016000005674001241
1000000086837000023641009039720667930140800326102016000005674001242
1000000086837000023641009039720667930140800426112016000005674001243
1000000086837000023641009039720667930140800526122016000005674001244
1000000086764000023641010039725120667643400226092016000001820001245
1000000086764000023641010039725120667643400326102016000001820001246
1000000086764000023641010039725120667643400426112016000001820001247
1000000086619000023641011039720576444146300226092016000021664001248
1000000086619000023641011039720576444146300326102016000021664001249
1000000086619000023641011039720576444146300426112016000021664001250
1000000086619000023641011039720576444146300526122016000021664001251
1000000086551000023641012039720529932849400226092016000002332001252
1000000086551000023641012039720529932849400326102016000002332001253
1000000086551000023641012039720529932849400426112016000002332001254
1000000086551000023641012039720529932849400526122016000002332001255
1000000086485000023641013039726555321741500224092016000007416001256
1000000086485000023641013039726555321741500324102016000007416001257
1000000086485000023641013039726555321741500424112016000007416001258
1000000086485000023641013039726555321741500524122016000007416001259
1000000086484000023641014039720517927543100224092016000001993001260
1000000086484000023641014039720517927543100324102016000001993001261
1000000086484000023641014039720517927543100424112016000001993001262
1000000086484000023641014039720517927543100524122016000001993001263
1000000086476000023641015039720789386143600224092016000018000001264
1000000086476000023641015039720789386143600324102016000018000001265
1000000086476000023641015039720789386143600424112016000018000001266
1000000086476000023641015039720789386143600524122016000018000001267
1000000086330000023641016039729412589948700224092016000009754001268
1000000086330000023641016039729412589948700324102016000009754001269
1000000086330000023641016039729412589948700424112016000009754001270
1000000086295000023641017039720714043842000224092016000016700001271
1000000086295000023641017039720714043842000324102016000016700001272
1000000086295000023641017039720714043842000424112016000016700001273
1000000086295000023641017039720714043842000524122016000016700001274
1000000086244000023641018039720197723640500223092016000020000001275
1000000086244000023641018039720197723640500323102016000020000001276
1000000086244000023641018039720197723640500423112016000020000001277
1000000086244000023641018039720197723640500523122016000020000001278
1000000086219000023641019039721061345041800223092016000014639001279
1000000086219000023641019039721061345041800323102016000014639001280
1000000086219000023641019039721061345041800423112016000014639001281
1000000086219000023641019039721061345041800523122016000014639001282
1000000086164000023641020039720168378140600223092016000019926001283
1000000086164000023641020039720168378140600323102016000019926001284
1000000086164000023641020039720168378140600423112016000019926001285
1000000086164000023641020039720168378140600523122016000019926001286
1000000086124000023641021039720479550140800223092016000009458001287
1000000086124000023641021039720479550140800323102016000009458001288
1000000086124000023641021039720479550140800423112016000009458001289
1000000086124000023641021039720479550140800523122016000009458001290
1000000086117000023641022039720471878243000223092016000004704001291
1000000086117000023641022039720471878243000323102016000004704001292
1000000086087000023641023039720617602441200223092016000011750001293
1000000086087000023641023039720617602441200323102016000011750001294
1000000086087000023641023039720617602441200423112016000011750001295
1000000086087000023641023039720617602441200523122016000011750001296
1000000086000000023641024039721373734116800223092016000003349001297
1000000086000000023641024039721373734116800323102016000003349001298
1000000086000000023641024039721373734116800423112016000003349001299
1000000086000000023641024039721373734116800523122016000003349001300
1000000085985000023641025039720600957241000223092016000003580001301
1000000085985000023641025039720600957241000323102016000003580001302
1000000085985000023641025039720600957241000423112016000003580001303
1000000085973000023641026039721355125472900222092016000016525001304
1000000085973000023641026039721355125472900322102016000016525001305
1000000085973000023641026039721355125472900422112016000016525001306
1000000085973000023641026039721355125472900522122016000016525001307
1000000085956000023641027039720181824647300222092016000003796001308
1000000085956000023641027039720181824647300322102016000003796001309
1000000085956000023641027039720181824647300422112016000003796001310
1000000085956000023641027039720181824647300522122016000003796001311
1000000085765000023641028039720765195941800222092016000001887001312
1000000085765000023641028039720765195941800322102016000001887001313
1000000085765000023641028039720765195941800422112016000001887001314
1000000085765000023641028039720765195941800522122016000001887001315
1000000085708000023641029039720134870840900222092016000013488001316
1000000085708000023641029039720134870840900322102016000013488001317
1000000085708000023641029039720134870840900422112016000013488001318
1000000085708000023641029039720134870840900522122016000013488001319
1000000085701000023641030039720102617341800222092016000007803001320
1000000085701000023641030039720102617341800322102016000007803001321
1000000085701000023641030039720102617341800422112016000007803001322
1000000085701000023641030039720102617341800522122016000007803001323
1000000085697000023641031039720337950849700222092016000005148001324
1000000085697000023641031039720337950849700322102016000005148001325
1000000085697000023641031039720337950849700422112016000005148001326
1000000085691000023641032039720515675440600222092016000004035001327
1000000085691000023641032039720515675440600322102016000004035001328
1000000085641000023641033039720689720947300221092016000004491001329
1000000085641000023641033039720689720947300321102016000004491001330
1000000085641000023641033039720689720947300421112016000004491001331
1000000085641000023641033039720689720947300521122016000004491001332
1000000085618000023641034039724056723044900221092016000003307001333
1000000085618000023641034039724056723044900321102016000003307001334
1000000085618000023641034039724056723044900421112016000003307001335
1000000085618000023641034039724056723044900521122016000003307001336
1000000085616000023641035039720786105046700221092016000014012001337
1000000085616000023641035039720786105046700321102016000014012001338
1000000085616000023641035039720786105046700421112016000014012001339
1000000085616000023641035039720786105046700521122016000014012001340
1000000085586000023641036039720343954141000221092016000002800001341
1000000085586000023641036039720343954141000321102016000002800001342
1000000085586000023641036039720343954141000421112016000002800001343
1000000085586000023641036039720343954141000521122016000002800001344
1000000085487000023641037039721190709775900221092016000003494001345
1000000085487000023641037039721190709775900321102016000003494001346
1000000085487000023641037039721190709775900421112016000003494001347
1000000085487000023641037039721190709775900521122016000003494001348
1000000085408000023641038039720685054942100220092016000004747001349
1000000085408000023641038039720685054942100320102016000004747001350
1000000085408000023641038039720685054942100420112016000004747001351
1000000085408000023641038039720685054942100520122016000004747001352
1000000085386000023641039039720774139447900220092016000011243001353
1000000085386000023641039039720774139447900320102016000011243001354
1000000085386000023641039039720774139447900420112016000011243001355
1000000085386000023641039039720774139447900520122016000011243001356
1000000084907000023641040039724553376849100219092016000004564001357
1000000084907000023641040039724553376849100319102016000004564001358
1000000084907000023641040039724553376849100419112016000004564001359
1000000084907000023641040039724553376849100519122016000004564001360
1000000084499000023641041039722969219948700216092016000004128001361
1000000084499000023641041039722969219948700316102016000004128001362
1000000084499000023641041039722969219948700416112016000004128001363
1000000084499000023641041039722969219948700516122016000004128001364
1000000084448000023641042039720476998042600216092016000009610001365
1000000084448000023641042039720476998042600316102016000009610001366
1000000084448000023641042039720476998042600416112016000009610001367
1000000084448000023641042039720476998042600516122016000009610001368
900136700012836404                                           001369
