0002923092016CREDSHOW            152721                      000001
1000000104319000023644798040230815262540000120122016000020637000002
1000000104319000023644798040230815262540000220012017000020637000003
1000000104319000023644798040230815262540000320022017000020637000004
1000000104319000023644798040230815262540000420032017000020637000005
1000000104319000023644798040230815262540000520042017000020637000006
1000000104319000023644798040230815262540000620052017000020637000007
1000000104319000023644798040230815262540000720062017000020637000008
1000000104319000023644798040230815262540000820072017000020637000009
1000000104319000023644798040230815262540000920082017000020637000010
1000000104319000023644798040230815262540001020092017000020637000011
1000000104319000023644798040230815262540001120102017000020637000012
1000000104319000023644798040230815262540001220112017000020637000013
1000000104318000023644799040230482381345600120122016000030933000014
1000000104318000023644799040230482381345600220012017000030933000015
1000000104318000023644799040230482381345600320022017000030933000016
1000000104318000023644799040230482381345600420032017000030933000017
1000000104318000023644799040230482381345600520042017000030933000018
1000000104318000023644799040230482381345600620052017000030933000019
1000000104318000023644799040230482381345600720062017000030933000020
1000000104318000023644799040230482381345600820072017000030933000021
1000000104318000023644799040230482381345600920082017000030933000022
1000000104318000023644799040230482381345601020092017000030933000023
1000000104318000023644799040230482381345601120102017000030933000024
1000000104318000023644799040230482381345601220112017000030933000025
1000000104317000023644800040230956919847800120122016000019002000026
1000000104317000023644800040230956919847800220012017000019002000027
1000000104317000023644800040230956919847800320022017000019002000028
1000000104317000023644800040230956919847800420032017000019002000029
1000000104317000023644800040230956919847800520042017000019002000030
1000000104317000023644800040230956919847800620052017000019002000031
1000000104317000023644800040230956919847800720062017000019002000032
1000000104317000023644800040230956919847800820072017000019002000033
1000000104317000023644800040230956919847800920082017000019002000034
1000000104317000023644800040230956919847801020092017000019002000035
1000000104317000023644800040230956919847801120102017000019002000036
1000000104317000023644800040230956919847801220112017000019002000037
1000000104316000023644801040237043671841300120122016000021563000038
1000000104316000023644801040237043671841300220012017000021563000039
1000000104316000023644801040237043671841300320022017000021563000040
1000000104316000023644801040237043671841300420032017000021563000041
1000000104316000023644801040237043671841300520042017000021563000042
1000000104316000023644801040237043671841300620052017000021563000043
1000000104316000023644801040237043671841300720062017000021563000044
1000000104316000023644801040237043671841300820072017000021563000045
1000000104316000023644801040237043671841300920082017000021563000046
1000000104316000023644801040237043671841301020092017000021563000047
1000000104314000023644802040230121287947300120122016000014905000048
1000000104314000023644802040230121287947300220012017000014905000049
1000000104314000023644802040230121287947300320022017000014905000050
1000000104314000023644802040230121287947300420032017000014905000051
1000000104314000023644802040230121287947300520042017000014905000052
1000000104314000023644802040230121287947300620052017000014905000053
1000000104314000023644802040230121287947300720062017000014905000054
1000000104314000023644802040230121287947300820072017000014905000055
1000000104314000023644802040230121287947300920082017000014905000056
1000000104314000023644802040230121287947301020092017000014905000057
1000000104313000023644803040230180861948000120122016000019869000058
1000000104313000023644803040230180861948000220012017000019869000059
1000000104313000023644803040230180861948000320022017000019869000060
1000000104313000023644803040230180861948000420032017000019869000061
1000000104313000023644803040230180861948000520042017000019869000062
1000000104313000023644803040230180861948000620052017000019869000063
1000000104313000023644803040230180861948000720062017000019869000064
1000000104313000023644803040230180861948000820072017000019869000065
1000000104313000023644803040230180861948000920082017000019869000066
1000000104313000023644803040230180861948001020092017000019869000067
1000000104313000023644803040230180861948001120102017000019869000068
1000000104313000023644803040230180861948001220112017000019869000069
1000000104303000023644804040230111628741200120122016000023095000070
1000000104303000023644804040230111628741200220012017000023095000071
1000000104303000023644804040230111628741200320022017000023095000072
1000000104303000023644804040230111628741200420032017000023095000073
1000000104303000023644804040230111628741200520042017000023095000074
1000000104303000023644804040230111628741200620052017000023095000075
1000000104303000023644804040230111628741200720062017000023095000076
1000000104303000023644804040230111628741200820072017000023095000077
1000000104303000023644804040230111628741200920082017000023095000078
1000000104303000023644804040230111628741201020092017000023095000079
1000000104303000023644804040230111628741201120102017000023095000080
1000000104303000023644804040230111628741201220112017000023095000081
1000000104302000023644805040230936507241700120122016000014715000082
1000000104302000023644805040230936507241700220012017000014715000083
1000000104302000023644805040230936507241700320022017000014715000084
1000000104302000023644805040230936507241700420032017000014715000085
1000000104302000023644805040230936507241700520042017000014715000086
1000000104302000023644805040230936507241700620052017000014715000087
1000000104302000023644805040230936507241700720062017000014715000088
1000000104302000023644805040230936507241700820072017000014715000089
1000000104302000023644805040230936507241700920082017000014715000090
1000000104302000023644805040230936507241701020092017000014715000091
1000000104302000023644805040230936507241701120102017000014715000092
1000000104302000023644805040230936507241701220112017000014715000093
1000000104301000023644806040230828260249300120122016000019134000094
1000000104301000023644806040230828260249300220012017000019134000095
1000000104301000023644806040230828260249300320022017000019134000096
1000000104301000023644806040230828260249300420032017000019134000097
1000000104301000023644806040230828260249300520042017000019134000098
1000000104301000023644806040230828260249300620052017000019134000099
1000000104301000023644806040230828260249300720062017000019134000100
1000000104301000023644806040230828260249300820072017000019134000101
1000000104301000023644806040230828260249300920082017000019134000102
1000000104301000023644806040230828260249301020092017000019134000103
1000000104301000023644806040230828260249301120102017000019134000104
1000000104301000023644806040230828260249301220112017000019134000105
1000000104344000023644807040230684344645000120122016000007815000106
1000000104344000023644807040230684344645000220012017000007815000107
1000000104344000023644807040230684344645000320022017000007815000108
1000000104344000023644807040230684344645000420032017000007815000109
1000000104344000023644807040230684344645000520042017000007815000110
1000000104344000023644807040230684344645000620052017000007815000111
1000000104344000023644807040230684344645000720062017000007815000112
1000000104344000023644807040230684344645000820072017000007815000113
1000000104344000023644807040230684344645000920082017000007815000114
1000000104344000023644807040230684344645001020092017000007815000115
1000000104344000023644807040230684344645001120102017000007815000116
1000000104344000023644807040230684344645001220112017000007815000117
1000000104342000023644808040230119412543300120112016000018413000118
1000000104342000023644808040230119412543300220122016000018413000119
1000000104342000023644808040230119412543300320012017000018413000120
1000000104342000023644808040230119412543300420022017000018413000121
1000000104342000023644808040230119412543300520032017000018413000122
1000000104342000023644808040230119412543300620042017000018413000123
1000000104342000023644808040230119412543300720052017000018413000124
1000000104342000023644808040230119412543300820062017000018413000125
1000000104342000023644808040230119412543300920072017000018413000126
1000000104342000023644808040230119412543301020082017000018413000127
1000000104342000023644808040230119412543301120092017000018413000128
1000000104342000023644808040230119412543301220102017000018413000129
1000000104341000023644809040230506585042900120112016000012280000130
1000000104341000023644809040230506585042900220122016000012280000131
1000000104341000023644809040230506585042900320012017000012280000132
1000000104341000023644809040230506585042900420022017000012280000133
1000000104341000023644809040230506585042900520032017000012280000134
1000000104341000023644809040230506585042900620042017000012280000135
1000000104341000023644809040230506585042900720052017000012280000136
1000000104341000023644809040230506585042900820062017000012280000137
1000000104341000023644809040230506585042900920072017000012280000138
1000000104341000023644809040230506585042901020082017000012280000139
1000000104341000023644809040230506585042901120092017000012280000140
1000000104341000023644809040230506585042901220102017000012280000141
1000000104338000023644810040230168635143700120112016000027079000142
1000000104338000023644810040230168635143700220122016000027079000143
1000000104338000023644810040230168635143700320012017000027079000144
1000000104338000023644810040230168635143700420022017000027079000145
1000000104338000023644810040230168635143700520032017000027079000146
1000000104338000023644810040230168635143700620042017000027079000147
1000000104338000023644810040230168635143700720052017000027079000148
1000000104338000023644810040230168635143700820062017000027079000149
1000000104338000023644810040230168635143700920072017000027079000150
1000000104338000023644810040230168635143701020082017000027079000151
1000000104338000023644810040230168635143701120092017000027079000152
1000000104338000023644810040230168635143701220102017000027079000153
1000000104336000023644811040234505924149100120112016000013676000154
1000000104336000023644811040234505924149100220122016000013676000155
1000000104336000023644811040234505924149100320012017000013676000156
1000000104336000023644811040234505924149100420022017000013676000157
1000000104336000023644811040234505924149100520032017000013676000158
1000000104336000023644811040234505924149100620042017000013676000159
1000000104336000023644811040234505924149100720052017000013676000160
1000000104336000023644811040234505924149100820062017000013676000161
1000000104336000023644811040234505924149100920072017000013676000162
1000000104336000023644811040234505924149101020082017000013676000163
1000000104336000023644811040234505924149101120092017000013676000164
1000000104336000023644811040234505924149101220102017000013676000165
1000000104335000023644812040230904384748800120122016000019749000166
1000000104335000023644812040230904384748800220012017000019749000167
1000000104335000023644812040230904384748800320022017000019749000168
1000000104335000023644812040230904384748800420032017000019749000169
1000000104335000023644812040230904384748800520042017000019749000170
1000000104335000023644812040230904384748800620052017000019749000171
1000000104335000023644812040230904384748800720062017000019749000172
1000000104335000023644812040230904384748800820072017000019749000173
1000000104335000023644812040230904384748800920082017000019749000174
1000000104335000023644812040230904384748801020092017000019749000175
1000000104335000023644812040230904384748801120102017000019749000176
1000000104335000023644812040230904384748801220112017000019749000177
1000000104333000023644813040230180407848400120112016000017783000178
1000000104333000023644813040230180407848400220122016000017783000179
1000000104333000023644813040230180407848400320012017000017783000180
1000000104333000023644813040230180407848400420022017000017783000181
1000000104333000023644813040230180407848400520032017000017783000182
1000000104333000023644813040230180407848400620042017000017783000183
1000000104333000023644813040230180407848400720052017000017783000184
1000000104333000023644813040230180407848400820062017000017783000185
1000000104333000023644813040230180407848400920072017000017783000186
1000000104333000023644813040230180407848401020082017000017783000187
1000000104333000023644813040230180407848401120092017000017783000188
1000000104333000023644813040230180407848401220102017000017783000189
1000000104458000023644814040230323028349000122102016000005932000190
1000000104458000023644814040230323028349000222112016000005932000191
1000000104458000023644814040230323028349000322122016000005932000192
1000000104458000023644814040230323028349000422012017000005932000193
1000000104458000023644814040230323028349000522022017000005932000194
1000000104458000023644814040230323028349000622032017000005932000195
1000000104458000023644814040230323028349000722042017000005932000196
1000000104458000023644814040230323028349000822052017000005932000197
1000000104411000023644815040235554318940000122102016000007000000198
1000000104411000023644815040235554318940000222112016000007000000199
1000000104411000023644815040235554318940000322122016000007000000200
1000000104411000023644815040235554318940000422012017000007000000201
1000000104411000023644815040235554318940000522022017000007000000202
1000000104411000023644815040235554318940000622032017000007000000203
1000000104411000023644815040235554318940000722042017000007000000204
1000000104411000023644815040235554318940000822052017000007000000205
1000000104411000023644815040235554318940000922062017000007000000206
1000000104411000023644815040235554318940001022072017000007000000207
1000000104411000023644815040235554318940001122082017000007000000208
1000000104411000023644815040235554318940001222092017000007000000209
1000000104410000023644816040232692838874900122102016000007910000210
1000000104410000023644816040232692838874900222112016000007910000211
1000000104410000023644816040232692838874900322122016000007910000212
1000000104410000023644816040232692838874900422012017000007910000213
1000000104410000023644816040232692838874900522022017000007910000214
1000000104398000023644817040231034840541300121102016000013000000215
1000000104398000023644817040231034840541300221112016000013000000216
1000000104398000023644817040231034840541300321122016000013000000217
1000000104387000023644818040230571181546600121102016000003576000218
1000000104387000023644818040230571181546600221112016000003576000219
1000000104387000023644818040230571181546600321122016000003576000220
1000000104387000023644818040230571181546600421012017000003576000221
1000000104387000023644818040230571181546600521022017000003576000222
1000000104386000023644819040235675603840000126102016000006443000223
1000000104386000023644819040235675603840000226112016000006443000224
1000000104386000023644819040235675603840000326122016000006443000225
1000000104386000023644819040235675603840000426012017000006443000226
1000000104386000023644819040235675603840000526022017000006443000227
1000000104386000023644819040235675603840000626032017000006443000228
1000000104385000023644820040234439733042500121102016000006328000229
1000000104385000023644820040234439733042500221112016000006328000230
1000000104385000023644820040234439733042500321122016000006328000231
1000000104385000023644820040234439733042500421012017000006328000232
1000000104385000023644820040234439733042500521022017000006328000233
1000000104385000023644820040234439733042500621032017000006328000234
1000000104385000023644820040234439733042500721042017000006328000235
1000000104385000023644820040234439733042500821052017000006328000236
1000000104384000023644821040237035223240400121102016000008815000237
1000000104384000023644821040237035223240400221112016000008815000238
1000000104384000023644821040237035223240400321122016000008815000239
1000000104384000023644821040237035223240400421012017000008815000240
1000000104384000023644821040237035223240400521022017000008815000241
1000000104384000023644821040237035223240400621032017000008815000242
1000000104384000023644821040237035223240400721042017000008815000243
1000000104384000023644821040237035223240400821052017000008815000244
1000000104384000023644821040237035223240400921062017000008815000245
1000000104384000023644821040237035223240401021072017000008815000246
1000000104384000023644821040237035223240401121082017000008815000247
1000000104384000023644821040237035223240401221092017000008815000248
1000000104382000023644822040230102933545100121102016000007489000249
1000000104382000023644822040230102933545100221112016000007489000250
1000000104382000023644822040230102933545100321122016000007489000251
1000000104382000023644822040230102933545100421012017000007489000252
1000000104382000023644822040230102933545100521022017000007489000253
1000000104382000023644822040230102933545100621032017000007489000254
1000000104382000023644822040230102933545100721042017000007489000255
1000000104382000023644822040230102933545100821052017000007489000256
1000000104382000023644822040230102933545100921062017000007489000257
1000000104382000023644822040230102933545101021072017000007489000258
1000000104382000023644822040230102933545101121082017000007489000259
1000000104382000023644822040230102933545101221092017000007489000260
1000000104382000023644822040230102933545101321102017000007489000261
1000000104381000023644823040230476999049900121102016000005881000262
1000000104381000023644823040230476999049900221112016000005881000263
1000000104381000023644823040230476999049900321122016000005881000264
1000000104381000023644823040230476999049900421012017000005881000265
1000000104381000023644823040230476999049900521022017000005881000266
1000000104381000023644823040230476999049900621032017000005881000267
1000000104381000023644823040230476999049900721042017000005881000268
1000000104381000023644823040230476999049900821052017000005881000269
1000000104381000023644823040230476999049900921062017000005881000270
1000000104381000023644823040230476999049901021072017000005881000271
1000000104381000023644823040230476999049901121082017000005881000272
1000000104381000023644823040230476999049901221092017000005881000273
1000000104381000023644823040230476999049901321102017000005881000274
1000000104380000023644824040230267370547300121102016000001993000275
1000000104380000023644824040230267370547300221112016000001993000276
1000000104380000023644824040230267370547300321122016000001993000277
1000000104380000023644824040230267370547300421012017000001993000278
1000000104380000023644824040230267370547300521022017000001993000279
1000000104379000023644825040230101677545800121102016000016791000280
1000000104379000023644825040230101677545800221112016000016791000281
1000000104379000023644825040230101677545800321122016000016791000282
1000000104379000023644825040230101677545800421012017000016791000283
1000000104379000023644825040230101677545800521022017000016791000284
1000000104379000023644825040230101677545800621032017000016791000285
1000000104379000023644825040230101677545800721042017000016791000286
1000000104379000023644825040230101677545800821052017000016791000287
1000000104379000023644825040230101677545800921062017000016791000288
1000000104379000023644825040230101677545801021072017000016791000289
1000000104379000023644825040230101677545801121082017000016791000290
1000000104379000023644825040230101677545801221092017000016791000291
1000000104379000023644825040230101677545801321102017000016791000292
1000000104379000023644825040230101677545801421112017000016791000293
1000000104379000023644825040230101677545801521122017000016791000294
1000000104378000023644826040230993785247100121102016000014889000295
1000000104378000023644826040230993785247100221112016000014889000296
1000000104378000023644826040230993785247100321122016000014889000297
1000000104378000023644826040230993785247100421012017000014889000298
1000000104378000023644826040230993785247100521022017000014889000299
1000000104378000023644826040230993785247100621032017000014889000300
1000000104378000023644826040230993785247100721042017000014889000301
1000000104378000023644826040230993785247100821052017000014889000302
1000000104378000023644826040230993785247100921062017000014889000303
1000000104378000023644826040230993785247101021072017000014889000304
1000000104378000023644826040230993785247101121082017000014889000305
1000000104374000023644827040230103773240500121102016000014649000306
1000000104374000023644827040230103773240500221112016000014649000307
1000000104374000023644827040230103773240500321122016000014649000308
1000000104374000023644827040230103773240500421012017000014649000309
1000000104374000023644827040230103773240500521022017000014649000310
1000000104374000023644827040230103773240500621032017000014649000311
1000000104374000023644827040230103773240500721042017000014649000312
1000000104374000023644827040230103773240500821052017000014649000313
1000000104374000023644827040230103773240500921062017000014649000314
1000000104374000023644827040230103773240501021072017000014649000315
1000000104374000023644827040230103773240501121082017000014649000316
1000000104374000023644827040230103773240501221092017000014649000317
1000000104372000023644828040230170437744700121102016000015355000318
1000000104372000023644828040230170437744700221112016000015355000319
1000000104372000023644828040230170437744700321122016000015355000320
1000000104372000023644828040230170437744700421012017000015355000321
1000000104372000023644828040230170437744700521022017000015355000322
1000000104372000023644828040230170437744700621032017000015355000323
1000000104372000023644828040230170437744700721042017000015355000324
1000000104371000023644829040230278944744600121102016000012349000325
1000000104371000023644829040230278944744600221112016000012349000326
1000000104371000023644829040230278944744600321122016000012349000327
1000000104371000023644829040230278944744600421012017000012349000328
1000000104371000023644829040230278944744600521022017000012349000329
1000000104371000023644829040230278944744600621032017000012349000330
1000000104371000023644829040230278944744600721042017000012349000331
1000000104371000023644829040230278944744600821052017000012349000332
1000000104371000023644829040230278944744600921062017000012349000333
1000000104371000023644829040230278944744601021072017000012349000334
1000000104370000023644830040230816444749800121102016000015210000335
1000000104370000023644830040230816444749800221112016000015210000336
1000000104370000023644830040230816444749800321122016000015210000337
1000000104370000023644830040230816444749800421012017000015210000338
1000000104370000023644830040230816444749800521022017000015210000339
1000000104367000023644831040230103214445900126102016000026656000340
1000000104367000023644831040230103214445900226112016000026656000341
1000000104367000023644831040230103214445900326122016000026656000342
1000000104367000023644831040230103214445900426012017000026656000343
1000000104365000023644832040230958705941700110112016000006186000344
1000000104365000023644832040230958705941700210122016000006186000345
1000000104365000023644832040230958705941700310012017000006186000346
1000000104365000023644832040230958705941700410022017000006186000347
1000000104365000023644832040230958705941700510032017000006186000348
1000000104365000023644832040230958705941700610042017000006186000349
1000000104365000023644832040230958705941700710052017000006186000350
1000000104365000023644832040230958705941700810062017000006186000351
1000000104365000023644832040230958705941700910072017000006186000352
1000000104365000023644832040230958705941701010082017000006186000353
1000000104365000023644832040230958705941701110092017000006186000354
1000000104365000023644832040230958705941701210102017000006186000355
1000000104365000023644832040230958705941701310112017000006186000356
1000000104365000023644832040230958705941701410122017000006186000357
1000000104365000023644832040230958705941701510012018000006186000358
1000000104364000023644833040230362518645400121102016000005491000359
1000000104364000023644833040230362518645400221112016000005491000360
1000000104364000023644833040230362518645400321122016000005491000361
1000000104364000023644833040230362518645400421012017000005491000362
1000000104364000023644833040230362518645400521022017000005491000363
1000000104364000023644833040230362518645400621032017000005491000364
1000000104364000023644833040230362518645400721042017000005491000365
1000000104364000023644833040230362518645400821052017000005491000366
1000000104364000023644833040230362518645400921062017000005491000367
1000000104364000023644833040230362518645401021072017000005491000368
1000000104364000023644833040230362518645401121082017000005491000369
1000000104364000023644833040230362518645401221092017000005491000370
1000000104364000023644833040230362518645401321102017000005491000371
1000000104358000023644834040231092732543800121102016000012355000372
1000000104358000023644834040231092732543800221112016000012355000373
1000000104358000023644834040231092732543800321122016000012355000374
1000000104358000023644834040231092732543800421012017000012355000375
1000000104358000023644834040231092732543800521022017000012355000376
1000000104358000023644834040231092732543800621032017000012355000377
1000000104358000023644834040231092732543800721042017000012355000378
1000000104358000023644834040231092732543800821052017000012355000379
1000000104358000023644834040231092732543800921062017000012355000380
1000000104358000023644834040231092732543801021072017000012355000381
1000000104355000023644835040231032213043300121102016000004128000382
1000000104355000023644835040231032213043300221112016000004128000383
1000000104355000023644835040231032213043300321122016000004128000384
1000000104355000023644835040231032213043300421012017000004128000385
1000000104355000023644835040231032213043300521022017000004128000386
1000000104354000023644836040230541899740800121102016000004468000387
1000000104354000023644836040230541899740800221112016000004468000388
1000000104354000023644836040230541899740800321122016000004468000389
1000000104354000023644836040230541899740800421012017000004468000390
1000000104354000023644836040230541899740800521022017000004468000391
1000000104352000023644837040230677514646900126102016000004001000392
1000000104352000023644837040230677514646900226112016000004001000393
1000000104352000023644837040230677514646900326122016000004001000394
1000000104349000023644838040232661058389700121102016000003576000395
1000000104349000023644838040232661058389700221112016000003576000396
1000000104349000023644838040232661058389700321122016000003576000397
1000000104349000023644838040232661058389700421012017000003576000398
1000000104349000023644838040232661058389700521022017000003576000399
1000000104348000023644839040230475166949400121102016000005470000400
1000000104348000023644839040230475166949400221112016000005470000401
1000000104348000023644839040230475166949400321122016000005470000402
1000000104348000023644839040230475166949400421012017000005470000403
1000000104348000023644839040230475166949400521022017000005470000404
1000000104348000023644839040230475166949400621032017000005470000405
1000000104348000023644839040230475166949400721042017000005470000406
1000000104348000023644839040230475166949400821052017000005470000407
1000000104348000023644839040230475166949400921062017000005470000408
1000000104348000023644839040230475166949401021072017000005470000409
1000000104348000023644839040230475166949401121082017000005470000410
1000000104348000023644839040230475166949401221092017000005470000411
1000000104346000023644840040230988441942600121102016000006000000412
1000000104346000023644840040230988441942600221112016000006000000413
1000000104346000023644840040230988441942600321122016000006000000414
1000000104346000023644840040230988441942600421012017000006000000415
1000000104346000023644840040230988441942600521022017000006000000416
1000000104346000023644840040230988441942600621032017000006000000417
1000000104346000023644840040230988441942600721042017000006000000418
1000000104346000023644840040230988441942600821052017000006000000419
1000000104346000023644840040230988441942600921062017000006000000420
1000000104346000023644840040230988441942601021072017000006000000421
1000000104343000023644841040230909274347000105112016000004970000422
1000000104343000023644841040230909274347000205122016000004970000423
1000000104343000023644841040230909274347000305012017000004970000424
1000000104334000023644842040232612089543400105112016000005990000425
1000000104334000023644842040232612089543400205122016000005990000426
1000000104334000023644842040232612089543400305012017000005990000427
1000000104334000023644842040232612089543400405022017000005990000428
1000000104334000023644842040232612089543400505032017000005990000429
1000000104334000023644842040232612089543400605042017000005990000430
1000000104330000023644843040231548561746800126102016000008252000431
1000000104330000023644843040231548561746800226112016000008252000432
1000000104330000023644843040231548561746800326122016000008252000433
1000000104330000023644843040231548561746800426012017000008252000434
1000000104330000023644843040231548561746800526022017000008252000435
1000000104330000023644843040231548561746800626032017000008252000436
1000000104330000023644843040231548561746800726042017000008252000437
1000000104330000023644843040231548561746800826052017000008252000438
1000000104330000023644843040231548561746800926062017000008252000439
1000000104330000023644843040231548561746801026072017000008252000440
1000000104330000023644843040231548561746801126082017000008252000441
1000000104330000023644843040231548561746801226092017000008252000442
1000000104324000023644844040230998190845200126102016000004245000443
1000000104324000023644844040230998190845200226112016000004245000444
1000000104324000023644844040230998190845200326122016000004245000445
1000000104324000023644844040230998190845200426012017000004245000446
1000000104324000023644844040230998190845200526022017000004245000447
1000000104324000023644844040230998190845200626032017000004245000448
1000000104324000023644844040230998190845200726042017000004245000449
1000000104324000023644844040230998190845200826052017000004245000450
1000000104324000023644844040230998190845200926062017000004245000451
1000000104324000023644844040230998190845201026072017000004245000452
1000000104324000023644844040230998190845201126082017000004245000453
1000000104324000023644844040230998190845201226092017000004245000454
1000000104321000023644845040237337773242000131102016000006087000455
1000000104321000023644845040237337773242000230112016000006087000456
1000000104321000023644845040237337773242000331122016000006087000457
1000000104321000023644845040237337773242000431012017000006087000458
1000000104321000023644845040237337773242000528022017000006087000459
1000000104321000023644845040237337773242000631032017000006087000460
1000000104321000023644845040237337773242000730042017000006087000461
1000000104321000023644845040237337773242000831052017000006087000462
1000000104321000023644845040237337773242000930062017000006087000463
1000000104321000023644845040237337773242001031072017000006087000464
1000000104315000023644846040232514934184300121102016000002683000465
1000000104315000023644846040232514934184300221112016000002683000466
1000000104315000023644846040232514934184300321122016000002683000467
1000000104315000023644846040232514934184300421012017000002683000468
1000000104315000023644846040232514934184300521022017000002683000469
1000000104312000023644847040230901416444000121102016000005156000470
1000000104312000023644847040230901416444000221112016000005156000471
1000000104312000023644847040230901416444000321122016000005156000472
1000000104312000023644847040230901416444000421012017000005156000473
1000000104312000023644847040230901416444000521022017000005156000474
1000000104312000023644847040230901416444000621032017000005156000475
1000000104312000023644847040230901416444000721042017000005156000476
1000000104312000023644847040230901416444000821052017000005156000477
1000000104312000023644847040230901416444000921062017000005156000478
1000000104312000023644847040230901416444001021072017000005156000479
1000000104312000023644847040230901416444001121082017000005156000480
1000000104312000023644847040230901416444001221092017000005156000481
1000000104312000023644847040230901416444001321102017000005156000482
1000000104312000023644847040230901416444001421112017000005156000483
1000000104312000023644847040230901416444001521122017000005156000484
1000000104310000023644848040230622183842800121102016000021395000485
1000000104310000023644848040230622183842800221112016000021395000486
1000000104310000023644848040230622183842800321122016000021395000487
1000000104310000023644848040230622183842800421012017000021395000488
1000000104310000023644848040230622183842800521022017000021395000489
1000000104310000023644848040230622183842800621032017000021395000490
1000000104310000023644848040230622183842800721042017000021395000491
1000000104310000023644848040230622183842800821052017000021395000492
1000000104310000023644848040230622183842800921062017000021395000493
1000000104310000023644848040230622183842801021072017000021395000494
1000000104307000023644849040230102171548400121102016000012188000495
1000000104307000023644849040230102171548400221112016000012188000496
1000000104307000023644849040230102171548400321122016000012188000497
1000000104307000023644849040230102171548400421012017000012188000498
1000000104307000023644849040230102171548400521022017000012188000499
1000000104307000023644849040230102171548400621032017000012188000500
1000000104307000023644849040230102171548400721042017000012188000501
1000000104307000023644849040230102171548400821052017000012188000502
1000000104307000023644849040230102171548400921062017000012188000503
1000000104307000023644849040230102171548401021072017000012188000504
1000000104307000023644849040230102171548401121082017000012188000505
1000000104307000023644849040230102171548401221092017000012188000506
1000000104305000023644850040230439723248200121102016000011220000507
1000000104305000023644850040230439723248200221112016000011220000508
1000000104305000023644850040230439723248200321122016000011220000509
1000000104305000023644850040230439723248200421012017000011220000510
1000000104305000023644850040230439723248200521022017000011220000511
1000000104304000023644851040239661989940400131102016000008792000512
1000000104304000023644851040239661989940400230112016000008792000513
1000000104304000023644851040239661989940400331122016000008792000514
1000000104304000023644851040239661989940400431012017000008792000515
1000000104304000023644851040239661989940400528022017000008792000516
1000000104304000023644851040239661989940400631032017000008792000517
1000000104304000023644851040239661989940400730042017000008792000518
1000000104304000023644851040239661989940400831052017000008792000519
1000000104304000023644851040239661989940400930062017000008792000520
1000000104304000023644851040239661989940401031072017000008792000521
1000000104304000023644851040239661989940401131082017000008792000522
1000000104304000023644851040239661989940401230092017000008792000523
1000000104304000023644851040239661989940401331102017000008792000524
1000000104304000023644851040239661989940401430112017000008792000525
1000000104304000023644851040239661989940401531122017000008792000526
1000000104298000023644852040230739386140200121102016000003723000527
1000000104298000023644852040230739386140200221112016000003723000528
1000000104298000023644852040230739386140200321122016000003723000529
1000000104298000023644852040230739386140200421012017000003723000530
1000000104298000023644852040230739386140200521022017000003723000531
1000000104295000023644853040231134171943000121102016000015034000532
1000000104295000023644853040231134171943000221112016000015034000533
1000000104295000023644853040231134171943000321122016000015034000534
1000000104295000023644853040231134171943000421012017000015034000535
1000000104295000023644853040231134171943000521022017000015034000536
1000000104295000023644853040231134171943000621032017000015034000537
1000000104295000023644853040231134171943000721042017000015034000538
1000000104294000023644854040230514025948600126102016000015501000539
1000000104294000023644854040230514025948600226112016000015501000540
1000000104294000023644854040230514025948600326122016000015501000541
1000000104294000023644854040230514025948600426012017000015501000542
1000000104294000023644854040230514025948600526022017000015501000543
1000000104294000023644854040230514025948600626032017000015501000544
1000000104294000023644854040230514025948600726042017000015501000545
1000000104294000023644854040230514025948600826052017000015501000546
1000000104294000023644854040230514025948600926062017000015501000547
1000000104294000023644854040230514025948601026072017000015501000548
1000000104237000023644855040230588282740000121102016000002985000549
1000000104237000023644855040230588282740000221112016000002985000550
1000000104237000023644855040230588282740000321122016000002985000551
1000000104237000023644855040230588282740000421012017000002985000552
1000000104237000023644855040230588282740000521022017000002985000553
1000000104237000023644855040230588282740000621032017000002985000554
1000000104237000023644855040230588282740000721042017000002985000555
1000000104237000023644855040230588282740000821052017000002985000556
1000000104237000023644855040230588282740000921062017000002985000557
1000000104237000023644855040230588282740001021072017000002985000558
1000000104237000023644855040230588282740001121082017000002985000559
1000000104235000023644856040231134535040600105112016000006644000560
1000000104235000023644856040231134535040600205122016000006644000561
1000000104235000023644856040231134535040600305012017000006644000562
1000000104235000023644856040231134535040600405022017000006644000563
1000000104235000023644856040231134535040600505032017000006644000564
1000000104235000023644856040231134535040600605042017000006644000565
1000000104233000023644857040231563672782800110112016000005000000566
1000000104233000023644857040231563672782800210122016000005000000567
1000000104233000023644857040231563672782800310012017000005000000568
1000000104233000023644857040231563672782800410022017000005000000569
1000000104233000023644857040231563672782800510032017000005000000570
1000000104087000023644860040230315923245000120102016001000000000571
1000000104087000023644860040230315923245000220112016001000000000572
1000000104087000023644860040230315923245000320122016001000000000573
1000000104087000023644860040230315923245000420012017001000000000574
1000000104087000023644860040230315923245000520022017001000000000575
900057400011910057                                           000576
